-2.41844374553e-05
0.0
0.0
0.0
0.0
0.0
0.0
0.0
-4.10759094757e-17
4.25911680367e-17
1.38368450803e-18
9.26424295609e-05
0.0
0.0
0.0
0.0
0.0
0.0
0.0
0.0
0.0
0.0
-9.26424295609e-05
-8.24149670573e-17
8.24149670573e-17
0.0
0.0
0.0
-1.64829934115e-16
1.64829934115e-16
0.0
-1.64829934115e-16
0.0
1.64829934115e-16
-1.62918874919e-16
1.25337227178e-16
9.26424295609e-05
0.0
0.0
0.0
0.0
-9.26424295609e-05
1.29417101297e-19
-1.62789457818e-16
8.40628781472e-17
8.25443841586e-17
-2.47116562547e-16
0.0
0.0
0.0
0.0
8.24149670573e-17
-8.24149670573e-17
8.24149670573e-17
0.0
0.0
0.0
0.0
0.0
-3.95487876804e-17
3.96264379412e-17
-1.64566786009e-16
-1.78056361867e-18
1.64959351216e-16
-1.6304829202e-16
1.78164209452e-18
1.64698360062e-16
1.29417101297e-19
1.5174155127e-18
1.64698360062e-16
-1.64832091066e-16
1.5174155127e-18
-2.4698067459e-16
0.0
8.24149670573e-17
-8.24149670573e-17
8.24149670573e-17
0.0
-8.24149670573e-17
-8.24149670573e-17
1.64829934115e-16
0.0
9.26424295609e-05
0.0
-9.2642429561e-05
8.06991119893e-17
-1.71585506802e-18
1.646832614e-18
1.71477659218e-18
-8.08964730688e-17
8.28075322646e-17
1.29417101297e-19
-8.393238257e-17
8.07659774916e-17
1.29417101297e-19
3.92565207266e-19
-1.64898956569e-18
-1.64833169542e-16
0.0
0.0
0.0
0.0
0.0
0.0
9.26424295609e-05
-9.26424295611e-05
1.64829934115e-16
0.0
0.0
0.0
-4.12074835287e-17
4.29190246933e-17
2.67462009346e-19
-8.39313040942e-17
8.2479675608e-17
1.64698360062e-16
-2.48892812262e-16
8.07670559675e-17
1.64698360062e-16
-2.46983910018e-16
8.07681344433e-17
-1.646832614e-18
-8.2285549956e-17
1.64437368907e-16
0.0
0.0
8.24149670573e-17
-8.24149670573e-17
0.0
8.24149670573e-17
-9.26424295609e-05
-1.64825620211e-16
9.26424295611e-05
0.0
0.0
0.0
6.68655023365e-20
-1.64898956569e-18
-2.0059650701e-19
3.23111362904e-18
-8.06354819145e-17
-8.2285549956e-17
-0.0563265971731
-0.0123214431316
0.00453947904849
-1.7167307332e-05
-0.00463212147805
-7.95138670366e-17
7.95138670366e-17
-9.2642429561e-05
0.0
0.0
9.2642429561e-05
-8.83487411518e-17
0.0
0.0
0.0
8.83487411518e-18
-1.71673073319e-05
1.71673073319e-05
-8.83487411518e-18
-0.023623819538
-0.0100980248221
-0.000370569718244
7.06789929214e-17
0.0138963644341
7.06789929214e-17
-1.76697482304e-17
1.71673073319e-05
-0.00928141026343
-8.83487411518e-17
0.0
8.83487411518e-17
-0.0600322943555
-0.00768932165356
-0.16612504351
-0.0125993704203
0.0
1.7167307332e-05
-1.71673073321e-05
1.71673073318e-05
0.0092642429561
0.0
-7.06789929214e-17
7.06789929214e-17
1.71673073321e-05
-1.7167307332e-05
7.06789929214e-17
-7.06789929214e-17
-7.54751222288e-05
-1.71673073318e-05
1.7167307332e-05
-1.71673073319e-05
-0.0515091908359
-0.00954217024478
-0.0700376767481
-0.00741139436488
-0.000185284859122
0.0
0.0
0.0
0.0
-9.2642429561e-05
-7.06789929214e-17
0.0
1.41357985843e-16
-1.41357985843e-16
0.0
1.71673073321e-05
-1.7167307332e-05
-1.41357985843e-16
7.06789929214e-17
7.06789929214e-17
-1.41357985843e-16
7.06789929214e-17
7.06789929214e-17
0.0
-7.06789929214e-17
7.06789929214e-17
-0.00928141026343
0.000109809736893
-1.41357985843e-16
-1.7167307332e-05
1.71673073321e-05
0.0092642429561
0.0
-7.06789929214e-17
7.06789929214e-17
-9.26424295609e-05
-7.06789929214e-17
7.06789929214e-17
0.0
1.71673073319e-05
-1.71673073319e-05
7.06789929214e-17
0.0
0.0
-7.06789929214e-17
7.06789929214e-17
0.0
0.0
0.0
0.0
0.0
0.0
-0.0092642429561
-1.7167307332e-05
1.71673073319e-05
-1.41357985843e-16
0.0092642429561
7.06789929214e-17
-7.06789929214e-17
0.0
9.26424295611e-05
0.0
-7.06789929214e-17
0.0
0.0
-7.54751222291e-05
-1.71673073318e-05
0.0
1.71673073318e-05
-0.278054265727
-0.0120435158429
0.0048345736445
-1.71673073322e-05
1.7167307332e-05
-1.7167307332e-05
-2.82715971686e-16
1.7167307332e-05
-0.000109809736893
1.41357985843e-16
1.71673073318e-05
-0.00463212147805
0.0
-1.41357985843e-16
1.41357985843e-16
9.26424295608e-05
-1.71673073319e-05
1.7167307332e-05
-0.116005489118
-0.012228800702
-0.0442830813301
-0.00815253380136
-0.000909256988277
-1.71673073319e-05
-1.41357985843e-16
1.7167307332e-05
-1.71673073319e-05
1.71673073319e-05
-1.7167307332e-05
1.41357985843e-16
9.26424295608e-05
0.0
0.0
-0.00928141026343
1.71673073323e-05
0.0
0.0
-1.7167307332e-05
1.71673073322e-05
0.0
-1.71673073322e-05
1.71673073318e-05
0.0092642429561
1.41357985843e-16
-1.41357985843e-16
0.0
-7.5475122229e-05
-1.71673073319e-05
1.71673073319e-05
-1.71673073319e-05
-1.41357985843e-16
1.7167307332e-05
-1.71673073318e-05
0.0
-1.41357985843e-16
-0.0151007160184
-0.0134331522863
-0.00565118820322
0.000109809736893
0.0
0.0
0.0
0.0
2.82715971686e-16
0.0092642429561
0.0
1.41357985843e-16
-2.82715971686e-16
0.0
-9.2642429561e-05
0.0
1.71673073319e-05
-1.71673073319e-05
0.0
1.7167307332e-05
-1.71673073322e-05
1.41357985843e-16
0.0
-1.41357985843e-16
9.2642429561e-05
1.41357985843e-16
1.41357985843e-16
-0.0138963644341
-1.7167307332e-05
0.0
1.7167307332e-05
1.41357985843e-16
-1.7167307332e-05
1.7167307332e-05
0.00917160052653
0.0
-1.41357985843e-16
0.0
0.0
-1.41357985843e-16
1.71673073319e-05
-1.71673073319e-05
0.0
1.71673073319e-05
-1.71673073319e-05
0.0
0.000109809736893
-1.71673073319e-05
0.0
-2.82715971686e-16
1.41357985843e-16
-9.26424295608e-05
-0.00464928878538
1.71673073319e-05
0.0
-1.71673073319e-05
1.71673073319e-05
0.0
-1.71673073319e-05
1.71673073319e-05
0.00463212147805
-1.41357985843e-16
1.41357985843e-16
0.0
-1.41357985843e-16
1.41357985843e-16
0.000109809736893
-1.71673073319e-05
-1.41357985843e-16
1.7167307332e-05
-1.71673073319e-05
-9.26424295611e-05
1.71673073319e-05
-1.71673073319e-05
0.0
0.0
0.0
0.0
-0.00928141026343
1.71673073319e-05
1.41357985843e-16
-1.7167307332e-05
1.71673073319e-05
1.41357985843e-16
-1.7167307332e-05
1.71673073319e-05
0.0092642429561
0.0
-1.41357985843e-16
-1.41357985843e-16
9.2642429561e-05
-1.41357985843e-16
1.71673073322e-05
-1.71673073318e-05
0.0
-9.2642429561e-05
1.71673073319e-05
-1.71673073319e-05
0.0
-1.41357985843e-16
1.41357985843e-16
0.0
-1.41357985843e-16
0.0
-0.00928141026343
1.7167307332e-05
1.41357985843e-16
-1.71673073319e-05
1.71673073318e-05
0.0
-0.000185284859122
0.0048928814594
1.71673073318e-05
-0.000370569718244
-8.24128101056e-17
8.24128101056e-17
-8.24128101056e-17
0.0
0.0
-1.64825620211e-16
1.64825620211e-16
9.26424295609e-05
0.0
-1.1043592644e-18
8.37932591861e-17
8.22057427436e-17
-1.63100058861e-16
1.3804490805e-19
1.64963665119e-16
-1.63169081315e-16
0.0
1.64963665119e-16
-1.63169081315e-16
1.64825620211e-16
-9.26424295609e-05
-1.66206069292e-16
0.0092642429561
-0.0092642429561
0.0
-8.24128101056e-17
8.24128101056e-17
0.0
0.0
-8.24128101056e-17
0.0
0.0
0.0
0.0
9.26424295611e-05
-1.64929153892e-16
1.62962013953e-16
-8.41383714563e-17
-8.0687248755e-17
3.79623497136e-19
8.23092764246e-17
8.21712315165e-17
-1.64687575303e-16
-9.26424295609e-05
-1.3804490805e-19
-1.51849398855e-18
-1.51849398855e-18
-1.3804490805e-19
8.31030346459e-17
0.0
8.24128101056e-17
-8.24128101056e-17
0.0
0.0
0.0
9.26424295609e-05
0.0
1.64825620211e-16
0.0
-1.64825620211e-16
0.0
1.62340811866e-16
-9.26424295611e-05
1.3804490805e-18
-1.663441142e-16
1.6565388966e-18
2.47100385409e-16
-8.25508550137e-17
-1.64411485487e-16
2.47100385409e-16
-8.0756271209e-17
-1.64411485487e-16
1.663441142e-16
1.6565388966e-18
-8.20676978355e-17
9.26424295609e-05
8.24128101056e-17
0.0
-8.24128101056e-17
8.24128101056e-17
0.0
8.24128101056e-17
-1.64825620211e-16
0.0
1.64825620211e-16
-9.26424295611e-05
6.21202086223e-19
6.90224540248e-20
4.26558765873e-17
-3.97569335183e-17
-1.63169081315e-16
1.663441142e-16
-1.64687575303e-16
1.3804490805e-19
1.663441142e-16
1.51849398855e-18
9.26424295609e-05
8.24128101056e-17
8.25508550137e-17
0.00463212147805
8.22747651976e-17
0.0
0.0
-8.22747651976e-17
0.0
8.22747651976e-17
-9.2642429561e-05
0.0
0.0
0.0
0.0
0.0
0.0
-1.6565388966e-18
-5.52179632199e-19
1.64549530395e-16
-1.64549530395e-16
-1.6565388966e-18
1.63445171131e-16
9.26424295609e-05
-1.62892991499e-16
8.0618226301e-17
8.00660466688e-17
-1.62892991499e-16
8.0618226301e-17
-0.00464928878538
0.0
-9.2642429561e-05
0.0
1.31142662647e-18
0.0
0.0
0.0
1.64825620211e-16
0.0
-1.64825620211e-16
1.64825620211e-16
0.0
-1.25482821417e-16
-4.10683601448e-17
1.63100058861e-16
-1.66482159108e-16
1.63307126223e-16
-1.63031036407e-16
1.3804490805e-19
1.63445171131e-16
1.51849398855e-18
-1.64687575303e-16
9.26424295609e-05
-1.51849398855e-18
0.00928141026343
-0.00464928878538
0.0
0.0
0.0
-9.2642429561e-05
0.0
8.22747651976e-17
8.28269448298e-17
-1.65101710027e-16
0.0
1.65101710027e-16
0.0
-1.66206069292e-16
4.14134724149e-17
-4.19656520471e-17
1.1043592644e-18
8.22747651976e-17
-2.47376475225e-16
0.0
2.46824295593e-16
-0.0601249367851
-0.012228800702
0.00472476390761
-0.051155788425
-0.069203894882
-0.00768932165356
-0.00398362447112
7.06789929214e-17
-1.7167307332e-05
1.7167307332e-05
0.0
-1.7167307332e-05
-7.54751222289e-05
0.0
3.53394964607e-17
3.53394964607e-17
-3.53394964607e-17
-3.53394964607e-17
3.53394964607e-17
0.0
-0.096979456443
-0.012228800702
-0.0838413987527
-0.0119508734134
9.26424295611e-05
-0.000202452166454
0.0
-0.0717224077875
-0.0016675637321
0.00741139436488
-0.0103931194182
0.0
-9.2642429561e-05
0.0
7.06789929214e-17
0.0
-7.06789929214e-17
7.06789929214e-17
0.0
-7.06789929214e-17
1.41357985843e-16
1.71673073319e-05
-1.7167307332e-05
7.06789929214e-17
0.0
-1.41357985843e-16
-7.06789929214e-17
9.26424295611e-05
-1.41357985843e-16
0.0
1.41357985843e-16
-0.0092642429561
0.0
-1.7167307332e-05
1.71673073319e-05
0.0
0.0092642429561
0.0
-7.06789929214e-17
7.06789929214e-17
-9.26424295611e-05
7.06789929214e-17
0.0
7.06789929214e-17
-1.41357985843e-16
1.71673073321e-05
-1.71673073319e-05
-1.41357985843e-16
1.71673073323e-05
-1.7167307332e-05
-7.06789929214e-17
1.41357985843e-16
7.06789929214e-17
-7.06789929214e-17
7.06789929214e-17
0.0
-7.06789929214e-17
-0.0092642429561
9.26424295611e-05
-1.7167307332e-05
1.71673073319e-05
-1.41357985843e-16
0.00463212147805
0.0
0.0
0.0
-7.06789929214e-17
-9.26424295608e-05
0.0
0.0
-7.06789929214e-17
1.71673073321e-05
-1.71673073319e-05
-1.41357985843e-16
1.41357985843e-16
7.06789929214e-17
-2.82715971686e-16
-0.39402542023
-0.00750403679444
0.0043713614967
-1.71673073322e-05
0.000109809736893
-1.71673073319e-05
0.0
0.0
1.71673073319e-05
-1.71673073319e-05
1.7167307332e-05
-0.00929857757076
1.71673073319e-05
-1.41357985843e-16
-1.71673073319e-05
1.71673073322e-05
-1.7167307332e-05
1.7167307332e-05
1.41357985843e-16
-1.71673073322e-05
1.7167307332e-05
0.0
-1.71673073319e-05
1.71673073319e-05
0.00917160052653
1.7167307332e-05
-1.71673073319e-05
9.26424295608e-05
1.71673073319e-05
-1.71673073318e-05
-1.41357985843e-16
1.7167307332e-05
-1.7167307332e-05
0.0
0.0
1.7167307332e-05
-1.7167307332e-05
-0.0092642429561
-0.0749648928221
-0.0121361582725
0.000185284859122
1.7167307332e-05
7.54751222291e-05
1.71673073319e-05
0.00917160052653
0.0
1.41357985843e-16
-1.41357985843e-16
1.41357985843e-16
1.71673073319e-05
-1.71673073319e-05
-1.41357985843e-16
1.7167307332e-05
-1.71673073319e-05
1.7167307332e-05
-1.71673073319e-05
0.0
-1.41357985843e-16
1.41357985843e-16
0.0
-0.00928141026343
1.71673073322e-05
1.41357985843e-16
-1.7167307332e-05
1.7167307332e-05
1.41357985843e-16
1.41357985843e-16
1.41357985843e-16
-1.7167307332e-05
0.0197500048038
0.0132478674272
-7.54751222294e-05
-1.71673073319e-05
1.71673073319e-05
-1.71673073319e-05
0.0
1.71673073319e-05
-1.71673073319e-05
-9.26424295611e-05
1.41357985843e-16
0.0
0.0
-0.00928141026343
1.7167307332e-05
9.2642429561e-05
-1.41357985843e-16
0.0
-1.7167307332e-05
1.71673073318e-05
0.0
1.41357985843e-16
0.0092642429561
-1.41357985843e-16
0.0
1.71673073319e-05
-0.000109809736893
-1.41357985843e-16
1.71673073319e-05
-1.7167307332e-05
0.0
1.71673073319e-05
-1.7167307332e-05
0.0
1.71673073319e-05
7.54751222291e-05
0.0
0.0
-0.0092642429561
1.41357985843e-16
-1.7167307332e-05
1.41357985843e-16
1.71673073319e-05
-1.7167307332e-05
1.7167307332e-05
-1.41357985843e-16
-1.71673073319e-05
1.7167307332e-05
0.0092642429561
0.0
1.41357985843e-16
-9.2642429561e-05
1.71673073318e-05
-1.7167307332e-05
-1.41357985843e-16
1.71673073318e-05
-1.71673073319e-05
0.0
1.71673073318e-05
-1.71673073319e-05
0.0
9.26424295608e-05
0.0
0.0
-0.00928141026343
1.71673073319e-05
0.0
-1.71673073319e-05
1.7167307332e-05
-1.41357985843e-16
-1.71673073319e-05
1.7167307332e-05
0.0
0.00917160052653
1.41357985843e-16
0.0
1.71673073319e-05
-0.000109809736893
0.0
1.7167307332e-05
-1.7167307332e-05
0.0
0.0
0.0
0.0
0.000109809736893
-1.71673073318e-05
0.0
-0.00157492130254
-0.00928141026343
1.71673073319e-05
0.0
-1.71673073319e-05
1.7167307332e-05
1.41357985843e-16
-0.000109809736893
1.71673073318e-05
-1.71673073319e-05
1.7167307332e-05
0.00935688538566
0.0
1.41357985843e-16
-7.40634247154e-05
0.0
8.2646203546e-17
-8.24148704774e-17
0.0
0.0
0.0
0.0
9.26424295609e-05
0.0
8.40520933887e-17
-8.07045043685e-17
2.76089816099e-19
1.3804490805e-19
2.58834202593e-19
1.20789294543e-19
1.72556135062e-20
1.64842875825e-16
-9.26424295611e-05
8.07665730678e-17
-8.22828779114e-17
0.0
0.0
0.0
0.0
8.24148704774e-17
0.0
0.0
0.0
-8.24148704774e-17
0.0
0.0
0.0
0.0
9.26424295611e-05
-1.64825620211e-16
1.58751644257e-18
8.07045043685e-17
8.05664594605e-17
-1.63324381836e-16
-9.26424295609e-05
1.31992565999e-19
0.0
0.0
1.31992565999e-19
1.31992565999e-19
1.31992565999e-19
0.0
0.0
0.0
8.24148704774e-17
-8.24148704774e-17
0.0
0.0
9.26424295609e-05
0.0
0.0
0.0
0.0
-9.26424295609e-05
0.0
0.0
6.43866175605e-20
0.0
6.43866175605e-20
0.0
-2.63985131998e-19
8.37991827549e-17
-8.22828779114e-17
1.31992565999e-19
1.64694529058e-16
1.51308551267e-18
1.38431227755e-18
-1.63181443545e-16
-8.24148704774e-17
0.0
9.2642429561e-05
0.0
0.0
-9.2642429561e-05
0.0
0.0
0.0
0.0
0.0
0.0
0.0
1.38753160843e-18
0.0
6.43866175605e-20
-1.96379183559e-19
0.0
1.31992565999e-19
0.0
0.0
1.31992565999e-19
0.0
1.31992565999e-19
1.31992565999e-19
9.26424295609e-05
0.0
0.0
-9.2642429561e-05
0.0
0.0
0.0
0.0
0.0
0.0
0.0
0.0
0.0
0.0
1.31992565999e-19
0.0
0.0
1.31992565999e-19
1.31992565999e-19
-2.63985131998e-19
1.51630484355e-18
1.51630484355e-18
-1.78350930642e-18
1.51308551267e-18
1.38431227755e-18
-1.51952417443e-18
0.0
9.26424295609e-05
-9.2642429561e-05
0.0
0.0
8.24148704774e-17
0.0
-8.24148704774e-17
0.0
1.64829740955e-16
0.0
-1.64829740955e-16
1.64829740955e-16
-1.64765354337e-16
6.76059484385e-20
1.31992565999e-19
1.31992565999e-19
0.0
0.0
0.0
0.0
0.0
0.0
0.0
1.31992565999e-19
1.31992565999e-19
0.0
0.0
-0.134238880434
-0.00620704278058
-0.00974462241123
-0.0282731083234
-0.0526208999906
-0.012228800702
-9.26424295611e-05
1.7167307332e-05
-1.7167307332e-05
-0.0694818221707
-0.0124140855612
0.0143939111966
-1.7167307332e-05
1.71673073319e-05
-1.71673073318e-05
0.0
1.71673073319e-05
-1.71673073319e-05
0.0
9.2642429561e-05
-7.06789929214e-17
-0.0092642429561
-7.06789929214e-17
0.0
-1.41357985843e-16
-1.71673073318e-05
1.71673073318e-05
-0.0695916319076
-0.0121361582725
0.00416890933024
7.06789929214e-17
-7.06789929214e-17
-0.0514920235286
-0.007596679224
-0.000573021884698
1.41357985843e-16
-1.41357985843e-16
-7.06789929214e-17
1.41357985843e-16
-7.06789929214e-17
-7.06789929214e-17
0.0
-0.00928141026343
1.7167307332e-05
-1.41357985843e-16
-0.000109809736893
1.71673073318e-05
0.0092642429561
0.0
-7.06789929214e-17
-0.00481740633717
-0.0134331522863
-0.000353402410912
-1.71673073318e-05
1.7167307332e-05
-1.7167307332e-05
0.0
-7.06789929214e-17
-7.06789929214e-17
9.26424295611e-05
0.0
-9.26424295609e-05
0.0
-7.06789929214e-17
-0.00463212147805
0.0
-1.7167307332e-05
1.71673073319e-05
0.0092642429561
0.0
0.0
0.0
0.0
-7.06789929214e-17
7.06789929214e-17
-7.06789929214e-17
0.0
0.0
1.7167307332e-05
-1.71673073318e-05
7.06789929214e-17
1.41357985843e-16
-7.06789929214e-17
-1.41357985843e-16
1.41357985843e-16
0.0
-7.06789929214e-17
7.06789929214e-17
9.26424295609e-05
0.0
-0.157770057542
-0.012228800702
-0.00435419418936
-0.0514165484063
-0.00796724894224
-0.000387737025576
1.71673073319e-05
-0.129809211122
-0.0124140855612
0.000370569718245
0.000109809736893
0.00928141026343
-1.71673073319e-05
1.41357985843e-16
-7.54751222291e-05
-1.7167307332e-05
1.41357985843e-16
1.71673073319e-05
-1.7167307332e-05
0.0
-0.106706911547
-0.0125993704203
-0.00557571308099
1.71673073322e-05
-1.71673073319e-05
1.71673073319e-05
1.41357985843e-16
-1.71673073319e-05
0.0
1.7167307332e-05
0.0092642429561
0.0
9.26424295608e-05
0.0
-7.54751222291e-05
-1.71673073319e-05
1.71673073319e-05
-1.71673073319e-05
0.0
1.7167307332e-05
-1.71673073322e-05
0.0
1.71673073319e-05
-1.7167307332e-05
0.0
1.41357985843e-16
0.0
-0.0092642429561
0.0
1.41357985843e-16
1.41357985843e-16
-1.71673073319e-05
1.71673073319e-05
0.0
-1.71673073319e-05
1.71673073319e-05
0.0092642429561
-9.26424295608e-05
-1.41357985843e-16
1.41357985843e-16
1.71673073319e-05
-1.71673073319e-05
0.0
1.7167307332e-05
-1.7167307332e-05
1.41357985843e-16
1.71673073318e-05
-1.71673073319e-05
1.71673073319e-05
-1.7167307332e-05
0.0
0.0
-1.41357985843e-16
-0.0138963644341
-1.71673073319e-05
0.0
1.71673073319e-05
-1.41357985843e-16
-1.7167307332e-05
1.71673073322e-05
1.41357985843e-16
0.0092642429561
1.41357985843e-16
0.0
0.0
0.0
0.0
-2.82715971686e-16
1.41357985843e-16
1.7167307332e-05
-1.7167307332e-05
0.0
1.71673073319e-05
-1.71673073319e-05
-9.2642429561e-05
0.0
9.2642429561e-05
0.0
-0.0100053823926
-0.0130625825681
-0.00518797605541
1.71673073318e-05
0.0
0.0092642429561
-1.41357985843e-16
0.0
1.41357985843e-16
-1.41357985843e-16
0.0
-1.41357985843e-16
-1.41357985843e-16
1.7167307332e-05
-1.71673073319e-05
0.0
1.71673073319e-05
-1.71673073319e-05
0.0
0.0
0.0
-1.41357985843e-16
1.41357985843e-16
0.0
-0.00463212147805
1.71673073319e-05
0.0
0.0
-1.71673073319e-05
1.71673073319e-05
0.0
0.0092642429561
0.0
0.0
1.41357985843e-16
-2.82715971686e-16
1.71673073322e-05
-1.7167307332e-05
0.0
1.71673073319e-05
-1.71673073318e-05
0.0
1.71673073319e-05
-1.71673073319e-05
0.0
0.0
0.0
0.0
0.0
-1.41357985843e-16
-0.0092642429561
0.000139334658893
-7.54751222291e-05
9.26424295608e-05
-8.24149670573e-17
1.64829934115e-16
-1.64829934115e-16
0.0
1.64829934115e-16
-9.26424295611e-05
0.0
0.0
-1.58751644257e-18
-1.98439555321e-19
1.44947153452e-18
0.0
1.29417101297e-19
1.29417101297e-19
1.29417101297e-19
1.29417101297e-19
1.29417101297e-19
2.58834202593e-19
1.29417101297e-19
0.0
0.0
0.0
8.24128101056e-17
0.0
0.0
9.26424295609e-05
0.0
8.24149670573e-17
0.0
-9.26424295611e-05
0.0
0.0
0.0
0.0
0.0
-1.51849398855e-18
0.0
0.0
1.29417101297e-19
1.29417101297e-19
-1.51849398855e-18
1.29417101297e-19
1.29417101297e-19
-1.51849398855e-18
0.0
9.26424295611e-05
0.0
-9.2642429561e-05
0.0
0.0
0.0
0.0
1.64825620211e-16
-1.64825620211e-16
0.0
0.0
0.0
0.0
0.0
-1.29417101297e-19
1.6304829202e-16
-1.63177709121e-16
0.0
0.0
9.26424295609e-05
1.31574052985e-19
-9.26424295609e-05
-2.58834202593e-19
-2.58834202593e-19
-2.58834202593e-19
0.0
1.64566786009e-16
0.0
0.0
0.0
0.0
0.0
0.0
0.0
0.0
0.0
0.0
0.0
0.0
0.0
1.20789294543e-19
6.03946472717e-20
0.0
0.0
0.0
0.0
0.0
0.0
0.0
0.0
0.0
0.0
0.0
0.0
0.0
0.0
0.0
0.0
0.0
0.0
0.0
0.0
1.64825620211e-16
-1.64825620211e-16
0.0
6.03946472717e-20
0.0
0.0
6.03946472717e-20
1.29417101297e-19
-2.58834202593e-19
-2.58834202593e-19
0.0
-2.58834202593e-19
-2.58834202593e-19
0.0
0.0
1.29417101297e-19
0.0
0.0
0.0
0.0
0.0
0.0
0.0
0.0
0.0
0.0
0.0
0.0
-9.26424295609e-05
1.51849398855e-18
-2.07067362074e-19
6.90224540248e-20
9.2642429561e-05
-8.22833930043e-17
0.0
0.0
0.0
0.0
0.0
0.0
-0.0723537374871
-0.0121361582725
-0.00518797605541
0.0
0.0
0.0
0.0
0.0
0.0
0.0
-1.7167307332e-05
1.7167307332e-05
-9.26424295609e-05
-8.83487411518e-17
-8.83487411518e-17
0.0
8.83487411518e-17
-7.06789929214e-17
-0.032702777635
-0.109132782023
-0.00944952781522
-0.0879176656533
-0.012228800702
0.000648497006927
7.54751222291e-05
7.06789929214e-17
0.0
-0.0092642429561
-1.71673073318e-05
-2.12036978764e-16
1.7167307332e-05
-0.069498989478
-0.0121361582725
0.00398362447112
-0.0233458922494
-0.00824517623092
-0.000816614558717
-1.71673073318e-05
1.71673073319e-05
-1.71673073318e-05
7.06789929214e-17
0.0
0.0
0.0
0.0
0.0
-7.06789929214e-17
-0.00464928878538
-7.54751222289e-05
0.0
-1.71673073322e-05
1.7167307332e-05
0.0092642429561
0.0
7.06789929214e-17
9.2642429561e-05
0.0
-7.06789929214e-17
7.06789929214e-17
0.0
7.06789929214e-17
7.06789929214e-17
1.7167307332e-05
-1.71673073318e-05
0.0
0.0
-1.41357985843e-16
1.41357985843e-16
-1.41357985843e-16
-7.06789929214e-17
1.41357985843e-16
-7.06789929214e-17
-7.06789929214e-17
-0.0092642429561
-0.000109809736893
1.71673073318e-05
-7.06789929214e-17
-1.7167307332e-05
0.00928141026343
7.06789929214e-17
0.0
-7.06789929214e-17
0.0
7.06789929214e-17
-7.06789929214e-17
0.000109809736893
2.12036978764e-16
-1.7167307332e-05
2.12036978764e-16
1.7167307332e-05
-1.71673073321e-05
0.0
1.41357985843e-16
-7.06789929214e-17
7.06789929214e-17
1.41357985843e-16
-1.41357985843e-16
0.0
-0.179372910937
-0.012228800702
0.0101151921295
1.41357985843e-16
0.0
-1.41357985843e-16
1.41357985843e-16
0.0
0.0
0.0
-1.7167307332e-05
1.7167307332e-05
0.0
-1.41357985843e-16
-0.143705575556
-0.00713346707619
-0.0536227994085
-0.0125993704203
-0.000277927288683
-1.71673073319e-05
1.71673073319e-05
-1.71673073319e-05
0.0
1.71673073319e-05
-1.7167307332e-05
-0.0765398141247
-0.0123214431316
-0.0149325984666
1.71673073319e-05
7.5475122229e-05
1.41357985843e-16
1.7167307332e-05
0.0092642429561
0.0
1.41357985843e-16
1.71673073318e-05
-1.71673073319e-05
0.0
1.71673073319e-05
1.41357985843e-16
-1.71673073319e-05
1.71673073319e-05
1.41357985843e-16
-1.71673073319e-05
1.71673073319e-05
-0.000109809736893
0.0
1.41357985843e-16
-0.0092642429561
0.0
-1.7167307332e-05
1.71673073322e-05
9.26424295608e-05
-1.71673073319e-05
1.7167307332e-05
1.41357985843e-16
-1.71673073319e-05
1.71673073318e-05
0.0092642429561
-1.41357985843e-16
-1.41357985843e-16
0.0
1.71673073319e-05
-1.71673073319e-05
0.0
-7.54751222291e-05
-1.71673073319e-05
0.0
1.71673073319e-05
-1.7167307332e-05
1.41357985843e-16
-0.024272316545
-0.0125067279907
-0.00509533362585
1.71673073319e-05
1.41357985843e-16
-1.7167307332e-05
1.71673073319e-05
-1.71673073319e-05
0.00463212147805
0.0
-9.2642429561e-05
1.41357985843e-16
-1.41357985843e-16
1.71673073319e-05
-1.71673073318e-05
0.0
1.71673073319e-05
-1.71673073319e-05
0.0
0.000109809736893
-1.71673073319e-05
0.0
0.0
1.41357985843e-16
1.41357985843e-16
0.00165039642477
0.0130625825681
0.000741139436488
1.7167307332e-05
-1.71673073319e-05
0.00464928878538
1.41357985843e-16
0.0
-1.41357985843e-16
0.0
1.71673073318e-05
-1.7167307332e-05
0.0
1.7167307332e-05
-0.000109809736893
9.26424295608e-05
0.0
-1.41357985843e-16
0.0
0.0
0.0
-0.0092642429561
0.0
-1.7167307332e-05
1.7167307332e-05
0.0
-1.7167307332e-05
1.71673073319e-05
0.0
-1.71673073318e-05
1.71673073318e-05
0.0092642429561
0.0
0.0
1.7167307332e-05
-0.000109809736893
-1.41357985843e-16
0.000109809736893
-1.7167307332e-05
0.0
1.71673073319e-05
-1.7167307332e-05
1.41357985843e-16
0.0
-1.41357985843e-16
1.41357985843e-16
0.0
-0.00463212147805
0.0
1.41357985843e-16
-1.7167307332e-05
1.71673073319e-05
1.41357985843e-16
0.0
0.0
-0.000387737025576
0.000109809736893
-9.26424295608e-05
-8.24149670573e-17
0.0
0.0
0.0
0.0
9.26424295609e-05
0.0
8.0652737528e-17
8.22057427436e-17
-1.63065547634e-16
8.22229983571e-17
8.22747651976e-17
-1.62927502726e-16
8.41901382968e-17
8.08943161171e-17
-1.51849398855e-18
-9.26424295611e-05
1.31574052985e-19
1.31574052985e-19
0.0
0.0
0.0
0.0
8.24149670573e-17
-8.24149670573e-17
8.24149670573e-17
0.0
-8.24149670573e-17
0.0
1.64829934115e-16
9.26424295609e-05
-1.64825620211e-16
1.64825620211e-16
1.72556135062e-18
-1.25258498442e-16
1.22117976783e-16
-9.26424295611e-05
8.25443841586e-17
-8.25443841586e-17
-1.77948514283e-18
2.60991154281e-19
-1.29417101297e-19
-1.31574052985e-19
2.60991154281e-19
-1.29417101297e-19
1.31574052985e-19
0.0
0.0
0.0
9.26424295609e-05
8.24128101056e-17
0.0
8.24128101056e-17
0.0
0.0
0.0
0.0
0.0
-9.26424295611e-05
1.64495606603e-16
-1.2362137211e-16
-4.11438534539e-17
1.31574052985e-19
8.24149670573e-17
-8.22833930043e-17
1.31574052985e-19
8.24149670573e-17
-8.22833930043e-17
2.6314810597e-19
8.24149670573e-17
-8.22833930043e-17
0.0
0.0
0.0
-8.24149670573e-17
8.24149670573e-17
0.0
-8.24149670573e-17
1.64829934115e-16
-9.26424295611e-05
0.0
0.0
0.0
0.0
-1.51849398855e-18
6.03946472717e-20
1.29417101297e-19
-3.09738262436e-18
-1.51849398855e-18
1.6469620311e-16
-1.77732819114e-18
9.26424295608e-05
8.39313040942e-17
1.51633703686e-18
-8.41944522001e-17
8.07648990158e-17
-2.15695168828e-21
0.0
0.0
-9.2642429561e-05
0.0
0.0
0.0
0.0
1.64825620211e-16
-1.64825620211e-16
0.0
1.64825620211e-16
-1.64825620211e-16
0.0
1.6304829202e-16
-1.25405171156e-16
-3.97569335183e-17
0.0
0.0
1.29417101297e-19
2.58834202593e-19
1.29417101297e-19
1.29417101297e-19
9.26424295611e-05
1.31574052985e-19
-8.21518189513e-17
-8.07454864506e-17
0.0
-9.2642429561e-05
0.0
0.0
0.0
0.0
0.0
0.0
0.0
0.0
0.0
0.0
-1.57888863582e-18
0.0
0.0
-1.51849398855e-18
-2.58834202593e-19
0.0
8.35430527903e-17
-8.25422272069e-17
-1.77732819114e-18
8.22833930043e-17
-8.25422272069e-17
-1.77732819114e-18
8.39313040942e-17
9.26424295608e-05
-0.174353052434
-0.0123214431316
-0.00509533362585
7.06789929214e-17
-1.7167307332e-05
1.71673073319e-05
1.41357985843e-16
-1.7167307332e-05
1.71673073318e-05
0.0
9.26424295611e-05
-1.7167307332e-05
-7.54751222291e-05
1.41357985843e-16
-1.41357985843e-16
0.0
0.00464928878538
-1.7167307332e-05
3.53394964607e-17
1.7167307332e-05
-1.7167307332e-05
-1.06018489382e-16
1.71673073321e-05
-1.71673073321e-05
-3.53394964607e-17
-0.00461495417072
0.0
0.0
-7.06789929214e-17
7.06789929214e-17
0.0
-1.06018489382e-16
-0.198920463575
-0.0188990556304
-0.0153786433071
0.0
0.0
1.41357985843e-16
0.0
1.7167307332e-05
-1.71673073318e-05
0.000185284859122
1.71673073319e-05
-1.71673073319e-05
0.0
1.71673073319e-05
-1.71673073318e-05
0.0
0.000185284859122
-0.00463212147805
-0.0146375038706
-0.012877297709
0.00416890933024
0.0
0.0
-7.06789929214e-17
7.06789929214e-17
-1.41357985843e-16
0.0
1.41357985843e-16
-7.54751222291e-05
-1.71673073319e-05
1.41357985843e-16
7.06789929214e-17
0.0
-2.82715971686e-16
1.41357985843e-16
0.0
-1.41357985843e-16
7.06789929214e-17
-0.00463212147805
-7.06789929214e-17
-1.71673073319e-05
1.71673073319e-05
-1.7167307332e-05
1.71673073319e-05
0.0092642429561
0.0
0.0
0.0
7.06789929214e-17
0.0
-1.41357985843e-16
2.12036978764e-16
1.7167307332e-05
-1.7167307332e-05
7.06789929214e-17
1.71673073323e-05
-1.7167307332e-05
-9.26424295609e-05
1.41357985843e-16
7.06789929214e-17
-7.06789929214e-17
7.06789929214e-17
-0.268848330586
-0.00739422705754
-0.000196631563551
-1.71673073319e-05
-0.00463212147805
1.41357985843e-16
0.0
-1.41357985843e-16
-0.0645889407113
-0.0121361582725
-9.26424295604e-05
1.71673073319e-05
-1.71673073319e-05
1.71673073322e-05
0.0
-2.82715971686e-16
0.0
-0.0390779379674
-0.00833781866049
-0.000370569718244
-1.71673073319e-05
-0.0377809439535
-0.0124140855612
-0.000573021884697
1.7167307332e-05
-9.26424295607e-05
0.0
1.41357985843e-16
-1.71673073322e-05
1.71673073322e-05
0.0
-1.71673073322e-05
1.7167307332e-05
0.0092642429561
0.0
0.0
0.0
1.71673073319e-05
-1.7167307332e-05
0.0
0.000109809736893
-1.71673073319e-05
1.7167307332e-05
-1.7167307332e-05
0.0
-9.26424295608e-05
0.0
0.0
-0.0092642429561
0.0
1.41357985843e-16
-1.41357985843e-16
-1.71673073319e-05
1.7167307332e-05
1.41357985843e-16
0.0
0.0
0.0
0.0
0.00463212147805
-1.41357985843e-16
0.0
0.000109809736893
-0.0415964508729
-0.0080598913718
-0.000463212147805
-1.71673073319e-05
0.0
0.0
0.0
-0.0158418554549
-0.0123214431316
-0.0161369500509
1.71673073319e-05
0.0
0.00463212147805
0.0
0.0
-1.41357985843e-16
0.0
-7.54751222291e-05
-1.71673073322e-05
1.41357985843e-16
1.71673073319e-05
-1.71673073319e-05
0.0
0.0
0.0
0.0
1.41357985843e-16
-1.41357985843e-16
0.0
1.41357985843e-16
-0.00917160052653
-1.71673073318e-05
-1.41357985843e-16
1.7167307332e-05
0.0
-1.71673073319e-05
1.7167307332e-05
0.00917160052653
1.41357985843e-16
0.0
0.0
-1.41357985843e-16
1.41357985843e-16
0.0103931194182
0.012877297709
0.000185284859121
-1.71673073319e-05
-1.41357985843e-16
0.0
0.0
-9.2642429561e-05
1.41357985843e-16
-0.0092642429561
-1.71673073322e-05
0.000109809736893
0.0
-1.71673073319e-05
1.71673073319e-05
-1.71673073319e-05
0.0
0.00464928878538
-1.41357985843e-16
0.0
-1.41357985843e-16
-1.41357985843e-16
1.7167307332e-05
-1.71673073322e-05
0.0
1.71673073319e-05
-1.7167307332e-05
0.0
1.7167307332e-05
-1.7167307332e-05
0.0
-9.2642429561e-05
9.26424295608e-05
0.0
-0.0092642429561
0.0
-1.71673073319e-05
0.0
1.71673073319e-05
0.0
-1.71673073319e-05
-0.00016811755179
0.00935688538566
0.0
0.0
0.0
0.0
-1.41357985843e-16
0.0
1.71673073319e-05
0.000185284859122
1.71673073318e-05
0.0
-9.2642429561e-05
8.24128101056e-17
-1.64825620211e-16
0.0
0.0
0.0
0.0
-6.90224540248e-20
1.64566786009e-16
-1.64506391361e-16
1.57888863582e-18
1.64437368907e-16
-1.64437368907e-16
8.40520933887e-17
9.2642429561e-05
0.0
0.0
0.0
-9.26424295609e-05
1.29417101297e-19
-8.24128101056e-17
0.0
0.0
0.0
0.0
0.0
0.0
8.24128101056e-17
0.0
0.0
0.0
0.0
-3.9558493963e-17
4.12667997001e-17
-8.22833930043e-17
8.24732047529e-17
-2.58834202593e-19
1.29417101297e-19
9.26424295609e-05
-9.26424295609e-05
-8.22833930043e-17
-8.2680272115e-17
1.64428741101e-16
-8.2680272115e-17
-8.2680272115e-17
1.64566786009e-16
-8.24128101056e-17
8.24128101056e-17
0.0
0.0
-8.24128101056e-17
8.24128101056e-17
0.0
-1.64825620211e-16
1.64825620211e-16
0.0
0.0
0.0
-4.26645043941e-17
-1.21971304069e-16
1.62987897373e-16
-1.98439555321e-19
-1.6469620311e-16
1.29417101297e-19
8.07648990158e-17
-8.07648990158e-17
1.64791108984e-18
8.07648990158e-17
-8.07648990158e-17
8.39313040942e-17
-8.25422272069e-17
1.6304829202e-16
0.0
0.0
0.0
0.0
0.0
8.24128101056e-17
0.0
0.0
0.0
-9.26424295611e-05
1.64825620211e-16
9.26424295607e-05
8.22833930043e-17
8.24128101056e-17
-1.64307951806e-16
8.23437876516e-17
8.25422272069e-17
-2.67462009346e-19
-8.09029439238e-17
8.24128101056e-17
0.0
-8.09029439238e-17
2.47109013216e-16
-1.64963665119e-16
1.6469620311e-16
0.0
0.0
0.0
0.0
0.0
-9.26424295609e-05
0.0
8.24128101056e-17
9.26424295607e-05
1.64825620211e-16
0.0
0.0
0.0
6.03946472717e-20
-4.27248990414e-17
4.27852936886e-17
1.70830573711e-18
-1.64566786009e-16
8.2153975903e-17
8.07648990158e-17
1.64791108984e-18
-8.24128101056e-17
8.07648990158e-17
-1.64791108984e-18
0.0
-1.64437368907e-16
8.24128101056e-17
-8.24128101056e-17
0.0
0.0
0.0
-9.2642429561e-05
0.0
0.0
0.0
0.0
1.64825620211e-16
9.26424295609e-05
-8.22833930043e-17
8.07648990158e-17
1.57888863582e-18
1.64894642665e-16
-2.48894969213e-16
8.24128101056e-17
1.64566786009e-16
-2.48894969213e-16
8.06354819145e-17
-1.77732819114e-18
-8.22833930043e-17
8.21453480963e-17
-0.0672584038613
-0.0124140855612
-0.00463212147805
8.83487411518e-17
-7.06789929214e-17
8.83487411518e-17
0.0
-1.59027734073e-16
0.0
1.76697482304e-16
-1.7167307332e-05
1.71673073318e-05
0.0
7.06789929214e-17
7.06789929214e-17
-1.94367230534e-16
-1.76697482304e-17
7.06789929214e-17
-0.0552148880183
-0.0086912210714
-0.000370569718244
-1.71673073321e-05
-0.00935688538566
8.83487411518e-17
0.0
-8.83487411518e-17
8.83487411518e-17
0.0
-1.7167307332e-05
0.000109809736893
0.0
-1.7167307332e-05
-0.0921792174131
-0.00768932165356
-0.0871765262169
-0.012228800702
0.000480379455137
-1.71673073318e-05
-0.0564020722953
-0.0123214431316
-0.000480379455137
0.0
-0.00928141026343
1.71673073318e-05
-1.41357985843e-16
-1.7167307332e-05
1.71673073321e-05
-0.0555099826143
-0.0108219969513
-0.000277927288683
0.0
0.0
0.0
-9.26424295609e-05
1.71673073319e-05
7.5475122229e-05
0.0
7.06789929214e-17
0.0
7.06789929214e-17
7.06789929214e-17
0.0
0.0
0.0
1.41357985843e-16
-0.0092642429561
7.06789929214e-17
-7.06789929214e-17
-1.71673073322e-05
1.7167307332e-05
0.0138963644341
0.0
0.0
0.0
0.0
0.0
7.06789929214e-17
-7.06789929214e-17
-7.5475122229e-05
-1.71673073319e-05
7.06789929214e-17
1.7167307332e-05
-1.71673073319e-05
9.2642429561e-05
-1.41357985843e-16
7.06789929214e-17
-2.12036978764e-16
0.0
0.0
0.0
0.0
-0.0092642429561
-1.71673073319e-05
-7.06789929214e-17
1.71673073319e-05
0.0138963644341
0.0
0.0
-7.06789929214e-17
7.06789929214e-17
-7.06789929214e-17
0.0
7.06789929214e-17
0.0
-7.5475122229e-05
-1.71673073318e-05
7.06789929214e-17
1.7167307332e-05
7.54751222291e-05
0.0
-0.23216192848
-0.00722610950575
0.00491004876673
-1.71673073319e-05
-1.41357985843e-16
0.0
0.0
-0.0740041339119
-0.0125993704203
-0.0468015942356
-0.00768932165356
-0.00101906672517
-0.0511386211176
-0.0126920128499
0.00418607663757
-1.71673073318e-05
1.71673073319e-05
-1.71673073319e-05
0.0
1.7167307332e-05
-0.000109809736893
1.7167307332e-05
-1.7167307332e-05
0.0
0.0
0.0
0.0
-0.0092642429561
7.54751222291e-05
1.7167307332e-05
0.0
-1.71673073319e-05
1.7167307332e-05
0.0
-1.7167307332e-05
1.71673073319e-05
0.0
-1.41357985843e-16
0.0092642429561
-0.0230679649607
-0.0125067279907
-0.00100189941784
-1.7167307332e-05
1.7167307332e-05
-1.7167307332e-05
0.0
1.41357985843e-16
0.0
0.0
-1.41357985843e-16
-0.00463212147805
1.71673073318e-05
0.0
1.41357985843e-16
0.0
7.5475122229e-05
1.71673073318e-05
0.0
0.0092642429561
0.0
0.0
1.41357985843e-16
0.0
-9.26424295608e-05
1.71673073319e-05
-1.7167307332e-05
0.0
1.71673073319e-05
-1.71673073319e-05
0.0
1.71673073319e-05
-1.71673073318e-05
-1.41357985843e-16
0.0
0.0
-0.00917160052653
-1.71673073319e-05
1.7167307332e-05
0.0
-1.71673073319e-05
1.71673073319e-05
1.41357985843e-16
-0.000109809736893
1.71673073318e-05
0.0092642429561
1.41357985843e-16
-1.41357985843e-16
0.0
1.41357985843e-16
0.0
1.7167307332e-05
-1.71673073319e-05
0.0
0.0
1.7167307332e-05
-1.7167307332e-05
0.0
9.2642429561e-05
1.41357985843e-16
-9.26424295608e-05
-1.41357985843e-16
-0.0092642429561
1.41357985843e-16
-1.71673073319e-05
1.71673073319e-05
-1.71673073319e-05
1.71673073319e-05
0.0
-1.71673073319e-05
1.71673073319e-05
0.0092642429561
0.0
-1.41357985843e-16
0.0
1.7167307332e-05
-1.71673073319e-05
1.41357985843e-16
1.71673073319e-05
-1.71673073319e-05
-0.00581930575501
-0.0125067279907
-0.000665664314259
1.41357985843e-16
-0.00928141026343
1.7167307332e-05
-1.41357985843e-16
-1.71673073322e-05
1.71673073322e-05
0.0
-1.7167307332e-05
1.7167307332e-05
0.0092642429561
0.0
-1.41357985843e-16
0.0
0.0
-9.2642429561e-05
0.0
1.7167307332e-05
-1.7167307332e-05
0.0
1.7167307332e-05
-1.7167307332e-05
0.0
9.26424295611e-05
0.0
0.0
2.82715971686e-16
-1.41357985843e-16
-0.0092642429561
-1.71673073318e-05
1.7167307332e-05
-1.71673073319e-05
0.0
1.7167307332e-05
-9.2642429561e-05
-1.71673073318e-05
0.00928141026343
0.0
0.000318851644782
1.71673073318e-05
0.0
-0.0138963644341
9.26424295608e-05
-9.26424295609e-05
0.0
9.26424295609e-05
1.6565388966e-16
0.0
-9.2642429561e-05
-4.19656520471e-17
1.63445171131e-16
-8.39313040942e-17
8.39313040942e-17
2.20871852879e-18
-1.63445171131e-16
1.6565388966e-16
2.20871852879e-18
-1.63445171131e-16
0.0
1.67862608188e-16
-8.39313040942e-17
0.0
0.0
0.0
0.0
0.0
0.0
8.17225855654e-17
8.39313040942e-17
-1.6565388966e-16
0.0
1.6565388966e-16
0.0
-1.6565388966e-16
1.63445171131e-16
-1.25896956141e-16
-4.19656520471e-17
0.0
8.17225855654e-17
-8.17225855654e-17
0.0
8.17225855654e-17
-8.39313040942e-17
0.0
8.17225855654e-17
-8.39313040942e-17
1.63445171131e-16
0.0
-9.26424295609e-05
9.2642429561e-05
0.0
0.0
0.0
-8.17225855654e-17
1.6565388966e-16
-1.6565388966e-16
1.6565388966e-16
-1.6565388966e-16
0.0
8.39313040942e-17
-8.17225855654e-17
0.0
3.97569335183e-17
-2.05410823178e-16
0.0
1.6565388966e-16
-1.63445171131e-16
-9.26424295607e-05
0.0
9.26424295611e-05
2.20871852879e-18
-1.6565388966e-16
-1.6565388966e-16
0.0
-8.17225855654e-17
8.17225855654e-17
0.0
-8.17225855654e-17
8.17225855654e-17
-8.17225855654e-17
0.0
0.0
0.0
0.0
0.0
-2.20871852879e-18
-9.26424295609e-05
0.0
0.0
9.2642429561e-05
8.17225855654e-17
0.0
-8.17225855654e-17
8.17225855654e-17
0.0
-8.17225855654e-17
8.39313040942e-17
2.20871852879e-18
-8.17225855654e-17
-8.17225855654e-17
8.17225855654e-17
0.0
-8.17225855654e-17
8.17225855654e-17
0.0
-8.17225855654e-17
0.0
0.0
1.6565388966e-16
-1.6565388966e-16
4.19656520471e-17
-4.19656520471e-17
1.6565388966e-16
-1.23688237612e-16
-4.19656520471e-17
0.0
1.61236452602e-16
-1.63445171131e-16
2.20871852879e-18
8.17225855654e-17
-2.47376475225e-16
1.63445171131e-16
8.39313040942e-17
8.17225855654e-17
0.0
0.0
0.0
0.0
0.0
-8.17225855654e-17
0.0
0.0
0.0
0.0
0.0
1.6565388966e-16
-9.26424295611e-05
0.0
0.0
0.0
9.2642429561e-05
-8.17225855654e-17
0.0
8.39313040942e-17
-8.17225855654e-17
0.0
0.0
2.20871852879e-18
8.39313040942e-17
8.39313040942e-17
0.0
0.0
-8.17225855654e-17
0.0
-0.217987636757
-0.012228800702
0.000631329699595
-7.5475122229e-05
0.0
-1.76697482304e-16
2.12036978764e-16
-1.71673073319e-05
1.71673073318e-05
2.12036978764e-16
3.53394964607e-17
0.0092642429561
0.0
1.7167307332e-05
-1.7167307332e-05
-3.53394964607e-17
1.7167307332e-05
-1.71673073321e-05
9.26424295609e-05
-7.5475122229e-05
-1.71673073319e-05
-0.00463212147805
-7.06789929214e-17
0.0
7.06789929214e-17
-1.06018489382e-16
-1.7167307332e-05
1.7167307332e-05
0.0
-1.76697482304e-16
1.76697482304e-16
-1.7167307332e-05
1.71673073318e-05
0.0
9.26424295611e-05
-3.53394964607e-17
-9.26424295609e-05
0.00928141026343
-1.71673073318e-05
0.0
1.71673073318e-05
-1.71673073318e-05
1.71673073318e-05
-1.71673073319e-05
1.06018489382e-16
0.0
-0.0995734444707
-0.007596679224
-0.00492721607406
-0.102462527094
-0.0125067279907
0.00444683661893
0.0
-0.0181579161939
-0.00870838837873
-0.000723972129156
-1.71673073319e-05
1.7167307332e-05
-1.71673073319e-05
0.0
0.0
0.0
9.26424295609e-05
0.0
-1.41357985843e-16
1.41357985843e-16
-1.41357985843e-16
-0.0092642429561
-1.7167307332e-05
7.06789929214e-17
1.71673073317e-05
0.00463212147805
-9.26424295609e-05
7.06789929214e-17
-7.06789929214e-17
7.06789929214e-17
-1.41357985843e-16
0.0
1.41357985843e-16
-7.06789929214e-17
7.06789929214e-17
1.71673073321e-05
-1.7167307332e-05
-7.06789929214e-17
7.06789929214e-17
7.06789929214e-17
-1.41357985843e-16
-7.06789929214e-17
7.06789929214e-17
0.0
9.26424295609e-05
0.0
-0.0092642429561
-1.7167307332e-05
1.7167307332e-05
-7.06789929214e-17
0.0092642429561
0.0
0.0
-7.06789929214e-17
7.06789929214e-17
7.06789929214e-17
-0.162587463879
-0.0092642429561
-0.00843046109005
-0.0649595104296
-0.0119508734134
-0.000446044840473
0.0
0.0
-1.41357985843e-16
0.0092642429561
1.41357985843e-16
-0.0743747036301
-0.0129699401385
-9.26424295613e-05
-1.7167307332e-05
-0.0092642429561
-2.82715971686e-16
1.41357985843e-16
-1.41357985843e-16
-1.71673073318e-05
-0.102184599806
-0.0121361582725
-0.000648497006927
1.71673073322e-05
0.0092642429561
0.0
0.0
1.7167307332e-05
-1.71673073319e-05
-1.41357985843e-16
1.71673073318e-05
-1.7167307332e-05
0.0
1.71673073319e-05
-1.71673073319e-05
0.0
-1.41357985843e-16
0.0
0.0
-0.00928141026343
1.71673073319e-05
0.0
0.0
0.0
-1.71673073319e-05
1.71673073319e-05
0.0
-1.71673073318e-05
1.71673073318e-05
0.0092642429561
0.0
-1.41357985843e-16
0.0
1.7167307332e-05
0.0
-1.7167307332e-05
2.82715971686e-16
1.71673073318e-05
-0.00963481267434
-0.00833781866049
-0.0340169389562
-0.0129699401385
-0.00565118820322
1.7167307332e-05
-1.71673073319e-05
0.00928141026343
1.41357985843e-16
0.0
-1.41357985843e-16
1.41357985843e-16
0.0
0.0
-9.26424295608e-05
1.71673073319e-05
-1.71673073319e-05
-1.41357985843e-16
1.71673073322e-05
-1.7167307332e-05
-1.41357985843e-16
9.26424295611e-05
1.41357985843e-16
1.41357985843e-16
0.0
2.82715971686e-16
-0.0092642429561
0.0
-1.41357985843e-16
2.82715971686e-16
-1.7167307332e-05
1.71673073318e-05
-1.41357985843e-16
0.0092642429561
-1.41357985843e-16
0.0
0.0
-1.41357985843e-16
0.0
-7.5475122229e-05
-1.7167307332e-05
0.0
1.71673073319e-05
-1.71673073318e-05
0.0
1.71673073318e-05
7.54751222291e-05
1.41357985843e-16
-1.41357985843e-16
-4.24073957528e-16
2.82715971686e-16
-1.41357985843e-16
-0.00928141026343
1.71673073319e-05
-1.71673073319e-05
1.71673073318e-05
-1.41357985843e-16
-1.71673073319e-05
-7.54751222291e-05
0.0092642429561
0.0
0.0
-1.41357985843e-16
0.0
1.41357985843e-16
0.0
1.71673073318e-05
0.0
-1.71673073318e-05
0.000109809736893
-1.71673073319e-05
0.0
0.0
1.41357985843e-16
1.41357985843e-16
0.0
1.41357985843e-16
1.41357985843e-16
-0.00928141026343
-7.5475122229e-05
-1.41357985843e-16
-1.71673073319e-05
1.7167307332e-05
0.0
0.0092642429561
1.41357985843e-16
0.0
-1.41357985843e-16
1.41357985843e-16
0.0
1.71673073319e-05
-1.71673073319e-05
0.0
1.71673073319e-05
7.54751222288e-05
0.0
1.71673073318e-05
-1.7167307332e-05
1.41357985843e-16
-1.41357985843e-16
-2.82715971686e-16
0.0
2.82715971686e-16
-0.0092642429561
-0.000295094596015
1.71673073318e-05
-8.21518189513e-17
-8.24149670573e-17
-8.24149670573e-17
1.64829934115e-16
0.0
0.0
0.0
0.0
-9.26424295611e-05
9.2642429561e-05
-1.23293515454e-16
1.64566786009e-16
-3.92565207266e-19
-1.63050448972e-16
8.25443841586e-17
8.25443841586e-17
-1.31574052985e-19
-8.07670559675e-17
8.25443841586e-17
-2.6314810597e-19
1.64698360062e-16
0.0
0.0
0.0
8.24149670573e-17
-8.24149670573e-17
0.0
8.24149670573e-17
0.0
0.0
-1.64829934115e-16
1.64829934115e-16
0.0
1.51633703686e-18
-1.64575413815e-18
-8.25443841586e-17
8.2479675608e-17
-1.63113000571e-16
1.64961508168e-16
1.29417101297e-19
1.29417101297e-19
1.31574052985e-19
3.94722158954e-19
-1.51633703686e-18
1.33731004673e-19
2.65305057658e-19
-8.21518189513e-17
0.0
-8.24149670573e-17
0.0
8.24149670573e-17
-8.24149670573e-17
0.0
-9.2642429561e-05
0.0
0.000185284859122
-9.2642429561e-05
8.07670559675e-17
-1.63050448972e-16
-1.31574052985e-19
1.64698360062e-16
-9.2642429561e-05
1.64791108984e-18
-2.46979596114e-16
-1.63928328309e-18
1.66482159108e-16
-1.64437368907e-16
2.47376475225e-16
0.0
0.0
0.0
-8.24128101056e-17
8.24128101056e-17
0.0
-8.24128101056e-17
1.64825620211e-16
9.26424295609e-05
-1.64829934115e-16
1.64829934115e-16
0.0
-1.63046135068e-16
1.25144180002e-16
-9.2642429561e-05
-3.23542753241e-18
2.58834202593e-19
8.24128101056e-17
8.24128101056e-17
-1.66473531301e-16
8.24128101056e-17
8.24128101056e-17
-1.66473531301e-16
1.6304829202e-16
1.29417101297e-19
-8.24128101056e-17
0.0
0.0
0.0
0.0
9.26424295609e-05
0.0
8.24149670573e-17
-1.64829934115e-16
0.0
1.64829934115e-16
-1.64829934115e-16
0.0
-9.26424295607e-05
-1.84635064516e-18
1.19063733193e-18
-8.10237332184e-17
8.22833930043e-17
-1.63928328309e-18
-8.21453480963e-17
8.25422272069e-17
-1.62651412909e-16
-1.2510319792e-18
1.63574588232e-16
1.64791108984e-18
-1.64307951806e-16
8.24128101056e-17
0.0
0.0
0.0
0.0
0.0
8.24128101056e-17
-1.64825620211e-16
9.26424295611e-05
0.0
0.0
0.0
-9.26424295609e-05
-1.23489798057e-16
-4.25954819401e-17
1.61590192679e-16
-8.39313040942e-17
8.22833930043e-17
-2.58834202593e-19
-8.40607211955e-17
8.22833930043e-17
-1.29417101297e-19
-8.41901382968e-17
-8.24128101056e-17
1.6304829202e-16
-1.29417101297e-19
-8.24128101056e-17
-0.120620443288
-0.00528061848497
-0.0147473136075
-9.26424295609e-05
7.5475122229e-05
1.71673073319e-05
1.76697482304e-17
-1.71673073319e-05
1.71673073317e-05
1.59027734073e-16
0.0
-1.76697482304e-16
1.76697482304e-16
-0.106538793995
-0.00750403679444
0.0196573623743
-1.71673073321e-05
1.71673073319e-05
-1.71673073318e-05
0.0
1.7167307332e-05
-0.00928141026343
-9.2642429561e-05
-0.111651294928
-0.00824517623092
0.000277927288683
1.71673073318e-05
-1.7167307332e-05
1.71673073318e-05
0.0092642429561
0.0
7.06789929214e-17
-0.0510459786881
-0.00750403679444
-0.000260759981351
-1.71673073321e-05
-7.54751222287e-05
-1.7167307332e-05
-7.06789929214e-17
0.0
7.06789929214e-17
-7.06789929214e-17
0.0
-0.0462457396582
-0.0103759521108
-0.0106710467068
-7.06789929214e-17
0.0
7.06789929214e-17
0.0
-7.06789929214e-17
7.06789929214e-17
0.0
-7.54751222292e-05
-1.71673073318e-05
-7.06789929214e-17
1.7167307332e-05
-1.7167307332e-05
0.0
0.0
1.41357985843e-16
0.0
7.06789929214e-17
-7.06789929214e-17
0.0
7.06789929214e-17
-0.00463212147805
9.26424295608e-05
-1.71673073319e-05
1.71673073319e-05
0.0
0.0092642429561
0.0
7.06789929214e-17
-7.06789929214e-17
0.0
7.06789929214e-17
0.0
0.0
-9.26424295608e-05
1.7167307332e-05
-1.7167307332e-05
1.41357985843e-16
0.0
-7.06789929214e-17
1.41357985843e-16
-1.41357985843e-16
-7.06789929214e-17
0.0
7.06789929214e-17
-7.06789929214e-17
0.0
-0.00464928878538
1.71673073318e-05
-1.71673073318e-05
1.71673073318e-05
0.0092642429561
-0.0880103080829
-0.0120435158429
-0.000370569718244
0.0
0.0
-0.111002797921
-0.00750403679444
-0.12024987357
-0.0080598913718
-0.123585001034
-0.0092642429561
-0.00296455774595
-0.000260759981351
0.000370569718244
-0.0231777746976
-0.0080598913718
-0.00509533362585
1.7167307332e-05
-1.71673073319e-05
1.71673073319e-05
1.41357985843e-16
7.54751222291e-05
1.7167307332e-05
0.0092642429561
-1.41357985843e-16
0.0
0.0
-1.41357985843e-16
-9.26424295611e-05
0.0
1.7167307332e-05
-1.7167307332e-05
1.41357985843e-16
1.71673073319e-05
-1.71673073322e-05
0.0
1.41357985843e-16
1.41357985843e-16
1.41357985843e-16
1.41357985843e-16
-2.82715971686e-16
-0.0092642429561
-1.71673073319e-05
1.7167307332e-05
1.41357985843e-16
-1.71673073319e-05
1.7167307332e-05
-1.41357985843e-16
0.0471549966465
0.00815253380136
0.00520514336275
-1.7167307332e-05
1.7167307332e-05
-1.7167307332e-05
0.0
1.7167307332e-05
-1.7167307332e-05
0.0
9.26424295611e-05
-2.82715971686e-16
1.41357985843e-16
-1.41357985843e-16
-0.00461495417072
-9.2642429561e-05
-1.71673073322e-05
1.71673073322e-05
1.41357985843e-16
-1.71673073322e-05
1.7167307332e-05
0.0
-1.7167307332e-05
0.00928141026343
0.0
-1.41357985843e-16
0.0
1.71673073319e-05
-1.7167307332e-05
0.0
0.000109809736893
-0.0100980248221
-0.0126920128499
-0.000850949173381
-0.00463212147805
1.7167307332e-05
-1.7167307332e-05
1.7167307332e-05
0.0
-1.7167307332e-05
1.7167307332e-05
0.0
0.00463212147805
1.41357985843e-16
0.0
-1.41357985843e-16
1.41357985843e-16
1.71673073319e-05
0.0
-1.71673073319e-05
-1.41357985843e-16
1.71673073322e-05
-0.000109809736893
9.2642429561e-05
-1.41357985843e-16
1.41357985843e-16
0.0
0.0
-1.41357985843e-16
-0.0092642429561
-1.71673073319e-05
1.71673073319e-05
0.0
-1.71673073319e-05
1.71673073319e-05
0.0
-1.71673073319e-05
0.00928141026343
0.0
-1.41357985843e-16
0.0
1.41357985843e-16
1.71673073319e-05
-1.7167307332e-05
-9.2642429561e-05
1.71673073319e-05
-1.71673073319e-05
9.26424295608e-05
1.71673073319e-05
-1.71673073319e-05
0.0
0.0
-1.41357985843e-16
1.41357985843e-16
-0.0139135317415
1.7167307332e-05
-1.71673073319e-05
1.71673073319e-05
0.0
-1.71673073319e-05
1.71673073319e-05
0.0
0.0
0.00461495417072
0.0
-5.92505895761e-05
-7.54751222291e-05
2.46850179013e-16
-8.24128101056e-17
8.24128101056e-17
0.0
0.0
0.0
0.0
0.0
-8.39313040942e-17
-9.2642429561e-05
1.64273440579e-16
-8.27579223758e-17
-8.21712315165e-17
2.76089816099e-19
8.08943161171e-17
9.26424295608e-05
-1.51849398855e-18
8.08943161171e-17
-8.22833930043e-17
1.6304829202e-16
-1.64825620211e-16
8.24128101056e-17
0.0
0.0
0.0
0.0
0.0
0.0
2.24785399421e-05
1.64825620211e-16
0.0
-1.64825620211e-16
1.64825620211e-16
0.0
-9.2642429561e-05
-8.20676978355e-17
-1.22514855894e-18
-6.90224540248e-20
9.26424295611e-05
1.29417101297e-19
-8.05060648132e-17
8.25422272069e-17
1.29417101297e-19
-8.05060648132e-17
8.28010614095e-17
0.0
-2.46979596114e-16
8.24128101056e-17
-8.24128101056e-17
0.0
8.24128101056e-17
0.0
-8.24128101056e-17
-9.26424295608e-05
-1.64825620211e-16
0.0
0.0
0.0
0.0
9.26424295611e-05
1.70830573711e-18
-8.22833930043e-17
8.24732047529e-17
1.29417101297e-19
1.51849398855e-18
-1.51849398855e-18
-1.51849398855e-18
-1.29417101297e-19
1.64955037313e-16
-1.6469620311e-16
-8.22833930043e-17
2.47367847418e-16
-9.26424295612e-05
0.0
0.0
0.0
-8.24128101056e-17
8.24128101056e-17
0.0
8.24128101056e-17
-1.64825620211e-16
9.26424295611e-05
0.0
0.0
0.0
-4.28543161427e-17
4.26558765873e-17
3.29582217968e-18
-1.29417101297e-19
-2.58834202593e-19
1.29417101297e-19
-1.64791108984e-18
1.29417101297e-19
1.29417101297e-19
-9.26424295612e-05
1.64963665119e-16
8.22920208111e-17
-2.4725568593e-16
0.0
0.0
0.0
0.0
0.0
0.0
0.0
9.26424295608e-05
1.64825620211e-16
0.0
0.0
0.0
0.0
1.64791108984e-18
-1.64307951806e-16
1.63177709121e-16
1.64635808463e-16
-3.2939240622e-16
1.64428741101e-16
-8.25422272069e-17
-8.25422272069e-17
-9.26424295609e-05
1.3804490805e-18
-1.6565388966e-18
-1.55300521556e-19
8.22747651976e-17
8.24128101056e-17
0.0
0.0
0.0
0.0
0.0
-8.24128101056e-17
1.64825620211e-16
9.26424295609e-05
-1.64825620211e-16
1.64825620211e-16
0.0
-4.10769879515e-17
4.10165933042e-17
-1.89811748568e-19
1.70830573711e-18
-1.63177709121e-16
1.64566786009e-16
-2.58834202593e-19
-1.62789457818e-16
8.2153975903e-17
-9.26424295608e-05
-1.64445996714e-16
8.26543886947e-17
8.26716443082e-17
-0.0717978829097
-0.0121361582725
-0.00463212147805
8.83487411518e-17
-8.83487411518e-17
8.83487411518e-17
0.0
9.26424295611e-05
-1.41357985843e-16
1.59027734073e-16
-0.0746869655335
-0.00768932165356
-0.0695572972929
-0.0113778515287
-0.000185284859122
-1.71673073321e-05
-9.2642429561e-05
3.18055468146e-16
-0.0745599884892
-0.007596679224
-0.00446400392626
1.71673073317e-05
-1.71673073319e-05
1.71673073318e-05
9.26424295609e-05
-0.0646815831409
-0.0121361582725
0.00389098204156
7.06789929214e-17
1.7167307332e-05
-1.7167307332e-05
7.06789929214e-17
1.7167307332e-05
-1.71673073318e-05
-7.06789929214e-17
1.7167307332e-05
-1.71673073317e-05
9.26424295608e-05
-1.41357985843e-16
-0.0606807913624
-0.0127846552794
-0.00463212147805
0.000109809736893
-1.71673073319e-05
1.71673073318e-05
0.0092642429561
0.0
0.0
7.06789929214e-17
-9.26424295611e-05
7.06789929214e-17
-1.41357985843e-16
7.06789929214e-17
0.0
0.0
1.7167307332e-05
-1.7167307332e-05
1.41357985843e-16
0.0
-7.06789929214e-17
0.0
0.0
0.0
0.0
0.0
1.41357985843e-16
-0.0092642429561
-1.7167307332e-05
1.71673073318e-05
-1.41357985843e-16
0.0092642429561
-7.06789929214e-17
0.0
9.2642429561e-05
7.06789929214e-17
-7.06789929214e-17
-9.26424295609e-05
-7.06789929214e-17
0.0
0.0
1.71673073319e-05
-1.71673073319e-05
1.7167307332e-05
-1.71673073319e-05
0.0
7.06789929214e-17
-7.06789929214e-17
0.0
0.0
0.0
0.0
0.0
-0.0092642429561
0.0
0.0
-7.06789929214e-17
0.0092642429561
0.0
7.06789929214e-17
-7.06789929214e-17
-0.139519498919
-0.0504901241107
-0.0118582309838
0.000816614558716
1.71673073319e-05
-0.0463383820878
-0.0512312635472
-0.012228800702
-0.000353402410911
0.0
-0.0602004119073
-0.0125067279907
-0.000370569718244
1.41357985843e-16
-1.71673073322e-05
1.7167307332e-05
-0.0324420176537
-0.0125993704203
-0.0288117955935
-0.00176020616166
0.0125993704203
-0.000648497006927
0.0
0.00928141026343
1.41357985843e-16
0.0
1.7167307332e-05
-1.71673073319e-05
0.0
1.71673073318e-05
-0.0152860008776
-0.0134331522863
-0.0010362340325
0.0
1.41357985843e-16
9.2642429561e-05
-0.0092642429561
-1.7167307332e-05
1.7167307332e-05
1.41357985843e-16
-1.7167307332e-05
1.7167307332e-05
0.0
-1.71673073319e-05
0.00928141026343
-9.26424295611e-05
0.0
1.41357985843e-16
-1.41357985843e-16
1.7167307332e-05
-1.71673073319e-05
0.0
1.7167307332e-05
-0.00528061848497
-0.0177873464757
-0.000387737025575
2.82715971686e-16
0.0
-0.00463212147805
0.0
-1.71673073318e-05
1.7167307332e-05
0.0
-1.71673073319e-05
1.71673073319e-05
0.0092642429561
0.0
1.41357985843e-16
1.41357985843e-16
-9.26424295611e-05
1.41357985843e-16
0.0
1.71673073319e-05
-1.71673073319e-05
9.26424295611e-05
1.7167307332e-05
-1.7167307332e-05
0.0
-1.41357985843e-16
2.82715971686e-16
1.41357985843e-16
-2.82715971686e-16
-1.41357985843e-16
-0.0092642429561
-1.71673073318e-05
1.71673073319e-05
-9.2642429561e-05
-1.71673073319e-05
1.7167307332e-05
0.0
-1.7167307332e-05
0.00474193121494
1.41357985843e-16
-2.82715971686e-16
1.41357985843e-16
0.0
1.71673073319e-05
-1.41357985843e-16
-1.71673073319e-05
1.7167307332e-05
-1.71673073322e-05
0.0
1.7167307332e-05
-1.7167307332e-05
-9.2642429561e-05
1.41357985843e-16
0.0
0.0
1.41357985843e-16
-0.0092642429561
-1.41357985843e-16
0.0
-1.7167307332e-05
1.71673073319e-05
9.2642429561e-05
-1.7167307332e-05
1.7167307332e-05
0.0092642429561
0.0
-1.41357985843e-16
0.0
0.0
-1.41357985843e-16
1.7167307332e-05
-1.71673073319e-05
-1.41357985843e-16
1.7167307332e-05
-0.000109809736893
0.0
1.71673073319e-05
-1.71673073319e-05
-1.41357985843e-16
-2.82715971686e-16
1.41357985843e-16
2.82715971686e-16
-0.0138963644341
-1.71673073319e-05
1.7167307332e-05
9.26424295608e-05
-1.71673073319e-05
1.71673073322e-05
0.0
0.0092642429561
-1.41357985843e-16
1.41357985843e-16
1.71673073318e-05
-2.23521653017e-05
0.0
9.26424295611e-05
-1.64825620211e-16
0.0
0.0
0.0
0.0
-1.63928328309e-18
8.05319482335e-17
-8.0721759982e-17
8.40348377752e-17
8.22747651976e-17
-9.26424295611e-05
1.31574052985e-19
1.31574052985e-19
1.31574052985e-19
1.31574052985e-19
1.31574052985e-19
1.31574052985e-19
0.0
0.0
0.0
0.0
8.24149670573e-17
-8.24149670573e-17
9.2642429561e-05
0.0
-8.24128101056e-17
0.0
1.64825620211e-16
-1.64825620211e-16
0.0
1.64825620211e-16
-9.26424295611e-05
-1.51525856101e-18
-1.51525856101e-18
0.0
0.0
1.31574052985e-19
1.28338625452e-19
2.59912678437e-19
1.31574052985e-19
1.31574052985e-19
8.26748797358e-17
-8.22833930043e-17
9.26424295609e-05
0.0
8.24128101056e-17
-8.24128101056e-17
0.0
8.24128101056e-17
0.0
8.24128101056e-17
-9.26424295611e-05
0.0
0.0
0.0
0.0
-1.84419369348e-18
-1.30495577141e-19
4.12074835287e-17
-4.1142774978e-17
0.0
1.31574052985e-19
1.31574052985e-19
1.31574052985e-19
9.2642429561e-05
-8.06354819145e-17
1.72556135062e-20
8.2153975903e-17
-8.24128101056e-17
0.0
0.0
8.24128101056e-17
-9.2642429561e-05
0.0
0.0
0.0
0.0
0.0
0.0
0.0
0.0
0.0
6.47085506483e-20
6.47085506483e-20
0.0
9.26424295609e-05
1.89811748568e-18
8.06354819145e-17
8.0756271209e-17
-1.63065547634e-16
8.06354819145e-17
8.0756271209e-17
-9.26424295611e-05
0.0
1.31574052985e-19
0.0
0.0
0.0
0.0
0.0
0.0
0.0
0.0
0.0
1.64829934115e-16
-1.64829934115e-16
0.0
1.6456894296e-16
-1.64829934115e-16
9.26424295611e-05
1.72556135062e-18
-1.64549530395e-16
1.63307126223e-16
0.0
-1.62910247112e-16
1.62789457818e-16
1.3804490805e-19
-9.26424295611e-05
0.0
-2.60991154281e-19
1.31574052985e-19
0.0
0.0
0.0
0.0
0.0
0.0
0.0
0.0
0.0
0.0
0.0
0.0
0.0
6.47085506483e-20
6.47085506483e-20
9.26424295609e-05
1.64687575303e-16
-1.64566786009e-16
-1.20789294543e-19
1.64549530395e-16
-8.25508550137e-17
-8.24128101056e-17
-9.26424295609e-05
0.0
1.31574052985e-19
8.24149670573e-17
-8.24149670573e-17
-0.0514165484063
-0.00787460651268
-0.074484513367
-0.00768932165356
-0.13453397503
-0.00461495417072
-0.0127091801572
-9.2642429561e-05
1.71673073321e-05
-1.71673073321e-05
1.71673073319e-05
-1.71673073319e-05
0.00918876783387
9.2642429561e-05
3.53394964607e-17
1.71673073319e-05
-1.7167307332e-05
7.06789929214e-17
1.71673073319e-05
-1.7167307332e-05
0.0
1.71673073321e-05
-1.71673073321e-05
0.0
1.71673073321e-05
-0.00928141026343
3.53394964607e-17
-1.7167307332e-05
1.71673073318e-05
-1.71673073317e-05
-0.0879176656533
-0.00768932165356
-0.0530841121384
-0.0121361582725
-0.000446044840473
-1.7167307332e-05
1.71673073321e-05
-1.7167307332e-05
-7.06789929214e-17
7.06789929214e-17
2.12036978764e-16
9.26424295608e-05
7.06789929214e-17
0.0
-0.0140816492933
-0.0132478674272
-0.00518797605541
1.71673073319e-05
-1.71673073321e-05
0.00928141026343
0.0
0.0
0.0
0.0
0.0
0.0
0.0
1.71673073319e-05
-0.000109809736893
7.06789929214e-17
0.000109809736893
-1.71673073317e-05
-2.12036978764e-16
0.0
0.0
-2.12036978764e-16
0.0
1.41357985843e-16
-1.41357985843e-16
0.0
-0.0092642429561
-1.7167307332e-05
1.71673073321e-05
0.0
0.0092642429561
0.0
0.0
0.0
0.0
-7.06789929214e-17
0.0
7.06789929214e-17
0.0
-7.06789929214e-17
1.71673073321e-05
-1.71673073318e-05
1.71673073319e-05
7.54751222293e-05
0.0
-9.2642429561e-05
7.06789929214e-17
-7.06789929214e-17
-7.06789929214e-17
-7.06789929214e-17
1.41357985843e-16
-0.0600322943555
-0.0124140855612
-0.0197328374965
-0.0231606073902
-0.0125067279907
-0.0700376767481
-0.00778196408312
-0.106884037247
-0.0127846552794
-0.0921792174131
-0.00787460651268
-0.0233458922494
-0.0123214431316
0.0145791960557
7.54751222291e-05
1.71673073322e-05
-0.000109809736893
0.0
0.0
1.7167307332e-05
-1.7167307332e-05
0.0
2.82715971686e-16
0.0
2.82715971686e-16
-0.00461495417072
0.0
-1.7167307332e-05
1.71673073319e-05
0.0
-1.71673073319e-05
1.71673073319e-05
0.0
-1.7167307332e-05
0.00928141026343
-2.82715971686e-16
0.0
1.41357985843e-16
0.0
1.7167307332e-05
1.41357985843e-16
-1.7167307332e-05
0.0
1.71673073319e-05
-1.7167307332e-05
0.0
0.0
0.0
-1.41357985843e-16
0.0
-0.0092642429561
-1.71673073319e-05
1.71673073319e-05
0.0
-1.71673073319e-05
1.71673073319e-05
-1.71673073319e-05
1.41357985843e-16
1.71673073318e-05
0.0
0.00463212147805
-1.41357985843e-16
9.2642429561e-05
-7.5475122229e-05
-1.71673073319e-05
0.0
1.7167307332e-05
-1.7167307332e-05
0.0
1.7167307332e-05
-1.7167307332e-05
0.0
0.0
2.82715971686e-16
0.0
0.0
-0.00463212147805
0.0
1.41357985843e-16
0.0
-9.26424295608e-05
7.5475122229e-05
-0.034185056508
-0.0125067279907
0.00324248503463
1.41357985843e-16
-7.54751222292e-05
-1.71673073319e-05
0.0
1.7167307332e-05
-1.7167307332e-05
0.0
1.7167307332e-05
-1.7167307332e-05
1.41357985843e-16
0.000463212147805
-1.25021328706e-05
1.71673073322e-05
-1.71673073322e-05
1.71673073319e-05
1.41357985843e-16
-1.7167307332e-05
0.00464928878538
0.0
-1.41357985843e-16
0.0
-1.41357985843e-16
0.000109809736893
-0.000109809736893
1.41357985843e-16
1.71673073319e-05
-1.7167307332e-05
0.0
-0.0181407488866
-0.0122760048938
-0.00085094917338
0.0
-0.00928141026343
1.71673073322e-05
0.0
-1.71673073319e-05
1.7167307332e-05
-9.2642429561e-05
0.0092642429561
2.82715971686e-16
-1.41357985843e-16
-2.82715971686e-16
1.41357985843e-16
0.0
0.0
0.0
0.0
1.71673073319e-05
-1.71673073319e-05
-1.41357985843e-16
1.71673073318e-05
7.5475122229e-05
-1.41357985843e-16
2.82715971686e-16
-1.41357985843e-16
0.0
1.41357985843e-16
1.41357985843e-16
-0.00917160052653
0.00016811755179
1.71673073318e-05
0.0
0.0
-8.24149670573e-17
1.64829934115e-16
0.0
0.0
0.0
-9.26424295611e-05
9.2642429561e-05
-8.08317645181e-17
-1.38691993556e-18
-1.33731004673e-19
8.24149670573e-17
-8.24128101056e-17
2.15695168828e-21
1.64700517013e-16
-1.64700517013e-16
2.15695168828e-21
1.62921031871e-16
-1.66480002156e-16
2.15695168828e-21
8.24149670573e-17
0.0
0.0
0.0
0.0
0.0
0.0
-8.24149670573e-17
0.0
-9.26424295609e-05
0.0
0.0
0.0
9.26424295609e-05
1.21906595518e-16
-1.6185981164e-16
-6.68655023365e-20
8.2153975903e-17
-8.20224018501e-17
8.26759582116e-17
8.26781151633e-17
-1.64174220801e-16
8.26759582116e-17
8.28075322646e-17
1.65006804153e-18
-3.29267303022e-16
0.0
-8.24149670573e-17
-9.26424295609e-05
0.0
0.0
0.0
0.0
9.26424295609e-05
0.0
1.64829934115e-16
-1.64829934115e-16
0.0
4.10101224492e-17
1.23554506608e-16
-1.62987897373e-16
-1.71693354387e-18
1.64566786009e-16
-8.07692129192e-17
8.07648990158e-17
-1.64791108984e-18
-9.26424295611e-05
0.0
0.0
0.0
0.0
0.0
0.0
0.0
0.0
9.26424295609e-05
8.24149670573e-17
0.0
8.24149670573e-17
-1.64829934115e-16
1.64829934115e-16
0.0
0.0
0.0
-8.22833930043e-17
-8.26781151633e-17
-9.26424295609e-05
0.0
0.0
0.0
0.0
0.0
0.0
0.0
0.0
0.0
0.0
9.2642429561e-05
-8.24149670573e-17
0.0
0.0
0.0
0.0
8.24149670573e-17
-8.24149670573e-17
1.64829934115e-16
-1.64829934115e-16
0.0
0.0
0.0
-9.26424295609e-05
0.0
0.0
0.0
0.0
0.0
0.0
0.0
0.0
0.0
0.0
2.41578589087e-19
0.0
9.2642429561e-05
0.0
-8.24149670573e-17
0.0
8.24149670573e-17
0.0
-8.24149670573e-17
0.0
0.0
0.0
0.0
0.0
-9.26424295609e-05
0.0
0.0
0.0
0.0
0.0
0.0
0.0
0.0
0.0
0.0
0.0
0.0
0.0
0.0
0.0
0.0
9.2642429561e-05
0.0
-0.185470143981
-0.00741139436488
7.54751222291e-05
1.7167307332e-05
-1.71673073319e-05
-0.0652202704109
-0.0125067279907
0.00372286448977
-1.7167307332e-05
1.7167307332e-05
-1.7167307332e-05
0.0
1.06018489382e-16
-3.53394964607e-17
0.0
1.7167307332e-05
-1.7167307332e-05
0.0
1.7167307332e-05
-0.0949001824851
-0.00741139436488
-0.00491004876673
1.71673073319e-05
-1.7167307332e-05
-0.0321469230577
-0.00843046109005
0.00398362447112
7.06789929214e-17
1.7167307332e-05
-1.71673073322e-05
-0.0459334777549
-0.0124140855612
-0.000665664314259
0.0
1.41357985843e-16
-1.41357985843e-16
0.0
-0.00928141026343
1.71673073317e-05
7.06789929214e-17
-1.7167307332e-05
1.71673073316e-05
0.0092642429561
0.0
-7.06789929214e-17
0.0
7.06789929214e-17
0.0
-7.06789929214e-17
0.0
1.41357985843e-16
-7.06789929214e-17
0.0
1.41357985843e-16
-1.41357985843e-16
9.26424295611e-05
7.06789929214e-17
0.0
-1.41357985843e-16
-9.26424295612e-05
1.41357985843e-16
0.0
-1.41357985843e-16
-0.0092642429561
-1.71673073319e-05
1.71673073318e-05
0.0
-1.71673073318e-05
0.00464928878538
0.0
7.06789929214e-17
-7.06789929214e-17
7.06789929214e-17
0.0
-7.06789929214e-17
7.06789929214e-17
1.7167307332e-05
-1.71673073319e-05
0.0
1.7167307332e-05
-1.71673073319e-05
2.82715971686e-16
-7.06789929214e-17
0.0
9.26424295611e-05
-7.06789929214e-17
-7.06789929214e-17
0.0
0.0
-0.00935688538566
-1.71673073321e-05
-0.212984945561
-0.0125067279907
-0.0991273996302
-0.0741139436488
-0.0177873464757
-0.00474193121494
1.71673073319e-05
-1.71673073319e-05
1.71673073318e-05
0.0
7.5475122229e-05
1.7167307332e-05
-0.000202452166454
0.00474193121494
7.5475122229e-05
1.71673073322e-05
-1.71673073322e-05
-1.41357985843e-16
1.71673073322e-05
-1.7167307332e-05
-2.82715971686e-16
1.7167307332e-05
-1.71673073319e-05
-2.82715971686e-16
1.41357985843e-16
-0.00461495417072
-1.41357985843e-16
-1.71673073319e-05
1.71673073319e-05
0.0
-1.71673073319e-05
1.7167307332e-05
0.0
-1.71673073319e-05
1.71673073319e-05
-9.26424295608e-05
-1.41357985843e-16
0.0092642429561
-1.71673073319e-05
1.41357985843e-16
1.71673073319e-05
-1.71673073322e-05
1.71673073319e-05
-1.7167307332e-05
-1.41357985843e-16
1.7167307332e-05
-1.71673073319e-05
0.0
1.7167307332e-05
-1.71673073319e-05
-0.0092642429561
-1.71673073319e-05
1.7167307332e-05
1.41357985843e-16
-1.71673073319e-05
-0.0603102216442
-0.00750403679444
0.00389098204156
0.0
9.26424295607e-05
1.41357985843e-16
0.0
1.7167307332e-05
-1.7167307332e-05
1.7167307332e-05
-1.41357985843e-16
-1.71673073322e-05
0.0
-7.5475122229e-05
-1.7167307332e-05
0.0
0.0
0.0
0.0
-0.00928141026343
1.7167307332e-05
-1.71673073319e-05
1.7167307332e-05
9.2642429561e-05
-1.71673073319e-05
1.7167307332e-05
-1.41357985843e-16
0.00998821508525
0.0127846552794
0.0158761900696
-1.7167307332e-05
1.71673073319e-05
0.0
-1.71673073319e-05
-1.41357985843e-16
1.71673073319e-05
-1.71673073318e-05
-2.82715971686e-16
1.41357985843e-16
-9.2642429561e-05
-0.00928141026343
1.71673073322e-05
-1.41357985843e-16
-1.71673073322e-05
1.71673073322e-05
1.41357985843e-16
-1.71673073322e-05
1.7167307332e-05
9.26424295611e-05
-1.7167307332e-05
0.00464928878538
1.41357985843e-16
0.0
-1.41357985843e-16
1.7167307332e-05
0.0
-1.71673073319e-05
-1.41357985843e-16
-7.54751222291e-05
-1.7167307332e-05
0.0
1.7167307332e-05
-1.7167307332e-05
0.0
1.41357985843e-16
0.0
-0.0092642429561
-1.71673073319e-05
1.71673073322e-05
-1.71673073319e-05
1.7167307332e-05
9.2642429561e-05
0.000260759981351
0.00435419418936
0.0
1.71673073319e-05
-1.7167307332e-05
1.41357985843e-16
1.71673073318e-05
-1.71673073322e-05
1.7167307332e-05
1.71673073318e-05
0.0
8.24149670573e-17
-1.64829934115e-16
1.64829934115e-16
0.0
0.0
-1.64829934115e-16
1.64829934115e-16
1.71477659218e-18
-8.17247425171e-17
-8.35365819352e-17
4.59430709603e-19
1.64698360062e-16
-2.6314810597e-19
-8.08986300205e-17
8.06354819145e-17
-1.77948514283e-18
-8.25465411103e-17
2.47244901172e-16
-1.64961508168e-16
-8.39313040942e-17
0.0
0.0
0.0
0.0
0.0
0.0
0.0
8.24149670573e-17
0.0
-1.64829934115e-16
1.64829934115e-16
0.0
-1.64829934115e-16
-9.26424295609e-05
3.94894715089e-17
9.2642429561e-05
-2.6314810597e-19
1.29417101297e-19
1.33731004673e-19
-1.64791108984e-18
-1.64791108984e-18
1.33731004673e-19
1.33731004673e-19
-1.64791108984e-18
1.65006804153e-18
-1.63050448972e-16
8.24149670573e-17
-8.24149670573e-17
0.0
0.0
0.0
0.0
-8.24149670573e-17
0.0
-9.26424295609e-05
0.0
1.64825620211e-16
-1.64825620211e-16
9.26424295611e-05
-1.7104626888e-18
-3.95606509147e-17
-1.23420775603e-16
1.6456894296e-16
-2.15695168828e-21
-8.20224018501e-17
8.22833930043e-17
-1.77948514283e-18
-8.2285549956e-17
-8.05060648132e-17
1.64829934115e-16
1.29417101297e-19
8.22833930043e-17
0.0
-8.24149670573e-17
8.24149670573e-17
-9.2642429561e-05
0.0
0.0
8.24128101056e-17
0.0
0.0
9.26424295609e-05
-1.64829934115e-16
1.64829934115e-16
1.65222499322e-18
-4.10726740481e-17
-1.23619215158e-16
1.62854166368e-16
-8.2153975903e-17
-8.07648990158e-17
1.63052605923e-16
-8.39313040942e-17
-8.07648990158e-17
1.63052605923e-16
-8.39291471425e-17
-8.07670559675e-17
-9.26424295609e-05
0.0
0.0
0.0
0.0
0.0
0.0
8.24128101056e-17
9.2642429561e-05
-1.64829934115e-16
0.0
0.0
0.0
8.07670559675e-17
-8.24128101056e-17
-1.71261964049e-18
1.23752946163e-16
-1.2197346102e-16
-1.31574052985e-19
1.64305794854e-16
-1.62789457818e-16
2.04047629711e-18
-9.26424295608e-05
8.06354819145e-17
-8.22833930043e-17
8.2680272115e-17
-1.64299323999e-16
8.24128101056e-17
-8.24128101056e-17
0.0
0.0
8.24128101056e-17
-8.24128101056e-17
0.0
0.0
0.0
0.0
0.0
0.0
9.2642429561e-05
4.26623474424e-17
-1.25006135094e-16
-1.84203674179e-18
1.64698360062e-16
1.29417101297e-19
-8.22833930043e-17
-1.64791108984e-18
-9.26424295608e-05
0.0
-1.64825620211e-16
1.62918874919e-16
-8.41901382968e-17
1.6469620311e-16
0.0
0.0
0.0
-0.0973671934686
-0.00815253380136
0.000370569718244
0.0
-1.71673073318e-05
1.71673073318e-05
0.0
-1.71673073318e-05
-7.54751222291e-05
0.0
0.0
-0.106724078854
-0.0121361582725
0.00453947904849
-1.71673073319e-05
1.71673073319e-05
-1.7167307332e-05
0.0
1.71673073321e-05
-0.00937405269299
-3.53394964607e-17
0.0
0.0
0.0
-1.71673073319e-05
-0.14767203272
1.7167307332e-05
-0.0081697011087
0.00463212147805
-0.0509533362585
-0.0125067279907
-0.000723972129156
-1.7167307332e-05
1.7167307332e-05
-1.71673073317e-05
-7.06789929214e-17
7.06789929214e-17
1.41357985843e-16
7.06789929214e-17
-7.06789929214e-17
-7.06789929214e-17
1.41357985843e-16
-1.41357985843e-16
-0.0092642429561
0.0
0.0
-1.7167307332e-05
1.71673073318e-05
-9.26424295608e-05
0.00463212147805
-7.06789929214e-17
7.06789929214e-17
7.06789929214e-17
-7.06789929214e-17
0.0
7.06789929214e-17
-7.06789929214e-17
1.7167307332e-05
-0.0235311771085
-0.0127846552794
-0.00510987868424
0.0
0.0
0.0
0.0
0.0
-0.0092642429561
1.41357985843e-16
7.5475122229e-05
1.71673073318e-05
0.0092642429561
0.0
-7.06789929214e-17
7.06789929214e-17
0.0
-7.06789929214e-17
0.0
1.41357985843e-16
-1.41357985843e-16
-9.26424295609e-05
1.7167307332e-05
-1.71673073318e-05
0.0
0.0
1.41357985843e-16
-1.41357985843e-16
-7.06789929214e-17
1.41357985843e-16
0.0
-1.41357985843e-16
1.41357985843e-16
0.0
-0.00464928878538
1.71673073319e-05
0.0
0.0
0.0092642429561
9.2642429561e-05
0.0
-7.06789929214e-17
0.0
0.0
7.06789929214e-17
-0.241518813865
-0.00778196408312
-0.0872863359538
-0.0127846552794
1.71673073319e-05
-0.0438953443046
-0.0123214431316
-0.000555854577366
-1.7167307332e-05
1.7167307332e-05
-1.7167307332e-05
0.0
1.71673073319e-05
-1.71673073319e-05
-0.0092642429561
-1.71673073319e-05
1.71673073318e-05
9.26424295611e-05
-1.71673073322e-05
1.71673073322e-05
-9.2642429561e-05
-1.71673073319e-05
1.71673073319e-05
2.82715971686e-16
-1.71673073319e-05
1.71673073319e-05
0.0092642429561
-1.41357985843e-16
1.41357985843e-16
1.71673073319e-05
-1.7167307332e-05
0.0
1.41357985843e-16
1.71673073319e-05
-1.7167307332e-05
0.0
1.71673073319e-05
-1.71673073319e-05
0.0
9.26424295608e-05
-0.0092642429561
-0.0670902863095
-0.0125993704203
-0.014654671178
1.71673073319e-05
-1.71673073319e-05
1.71673073319e-05
0.0092642429561
0.0
0.0
0.0
-7.5475122229e-05
-1.7167307332e-05
1.41357985843e-16
0.010207834559
0.0129699401385
-0.000109809736893
9.26424295611e-05
0.0
0.0
-0.0092642429561
-1.71673073319e-05
1.71673073322e-05
-1.41357985843e-16
-1.71673073319e-05
1.71673073322e-05
0.0
-0.000109809736893
1.7167307332e-05
0.0092642429561
-1.41357985843e-16
1.41357985843e-16
-1.41357985843e-16
1.71673073319e-05
-1.71673073319e-05
0.0
1.7167307332e-05
-1.7167307332e-05
0.0
0.0
1.7167307332e-05
7.5475122229e-05
0.0
0.0
-9.2642429561e-05
0.0
-0.00461495417072
0.0
-1.7167307332e-05
1.7167307332e-05
0.0
-1.7167307332e-05
1.7167307332e-05
0.0
-1.7167307332e-05
0.00463212147805
0.0
-1.41357985843e-16
1.41357985843e-16
0.0
1.71673073319e-05
0.0
-1.71673073319e-05
1.7167307332e-05
-1.7167307332e-05
0.0
1.7167307332e-05
-1.7167307332e-05
0.0
1.41357985843e-16
0.0
-0.0092642429561
-1.71673073319e-05
1.71673073319e-05
0.0
-1.71673073319e-05
1.71673073319e-05
-1.71673073319e-05
1.71673073319e-05
-1.41357985843e-16
0.0092642429561
0.0
-2.82715971686e-16
0.0
1.71673073319e-05
0.000277927288683
-0.000463212147805
-1.7167307332e-05
1.7167307332e-05
-1.71673073322e-05
-1.41357985843e-16
-1.41357985843e-16
-1.41357985843e-16
-0.0092642429561
-1.7167307332e-05
1.7167307332e-05
0.0
-1.71673073319e-05
1.7167307332e-05
0.0
-1.71673073318e-05
0.00928141026343
-9.2642429561e-05
9.2642429561e-05
0.0
0.0
1.71673073319e-05
-0.000109809736893
-7.54751222291e-05
1.71673073318e-05
-9.2642429561e-05
0.0
9.2642429561e-05
0.0
0.0
0.0
0.0
0.0
0.0
0.0
0.0
0.0
0.0
0.0
0.0
0.0
0.0
0.0
0.0
0.0
0.0
0.0
0.0
-9.2642429561e-05
0.0
0.0
9.2642429561e-05
0.0
0.0
0.0
0.0
0.0
0.0
0.0
0.0
0.0
0.0
0.0
0.0
0.0
0.0
0.0
0.0
0.0
-9.2642429561e-05
-8.24128101056e-17
4.11675799224e-16
-8.24128101056e-17
9.2642429561e-05
0.0
0.0
0.0
0.0
0.0
0.0
0.0
0.0
0.0
0.0
0.0
0.0
0.0
0.0
-9.26424295611e-05
1.29417101297e-19
8.07648990158e-17
-8.07648990158e-17
1.64791108984e-18
9.26424295611e-05
0.0
0.0
0.0
0.0
0.0
0.0
0.0
0.0
0.0
0.0
0.0
0.0
0.0
0.0
0.0
0.0
-9.26424295609e-05
4.12064050528e-17
-1.64307951806e-16
4.48645951161e-19
1.6469620311e-16
0.0
9.26424295609e-05
0.0
0.0
0.0
0.0
0.0
0.0
0.0
0.0
0.0
0.0
0.0
0.0
-2.15695168828e-19
0.0
0.0
0.0
0.0
0.0
0.0
-9.26424295609e-05
6.03946472717e-20
-4.13271943474e-17
4.10079654975e-17
1.29417101297e-19
9.26424295609e-05
0.0
0.0
0.0
0.0
0.0
0.0
0.0
0.0
0.0
0.0
0.0
0.0
0.0
0.0
0.0
0.0
0.0
0.0
0.0
-9.26424295609e-05
-1.64791108984e-18
1.57888863582e-18
1.64791108984e-18
-1.77732819114e-18
-1.77732819114e-18
-8.22833930043e-17
-8.07735268225e-17
9.26424295611e-05
0.0
0.0
0.0
0.0
-0.054010536434
-0.0121361582725
-0.0151178833258
7.06789929214e-17
-7.06789929214e-17
1.59027734073e-16
-0.0561584796213
-0.0125067279907
-0.000723972129156
-1.94367230534e-16
1.76697482304e-16
3.53394964607e-17
-3.53394964607e-17
0.0
-0.131644892406
-0.012228800702
0.000370569718244
-1.71673073321e-05
-7.5475122229e-05
-1.71673073321e-05
-3.53394964607e-17
-0.00464928878538
1.7167307332e-05
-1.06018489382e-16
-1.71673073318e-05
1.71673073319e-05
0.0
-1.71673073319e-05
1.71673073319e-05
1.41357985843e-16
-1.7167307332e-05
-0.141187062651
-0.00768932165356
-0.0102661423739
-0.0133576771641
-0.000648497006927
7.06789929214e-17
-7.06789929214e-17
0.0
0.0
0.0
-1.41357985843e-16
0.0
-0.00928141026343
1.71673073319e-05
-1.41357985843e-16
-7.06789929214e-17
-1.71673073318e-05
0.00928141026343
0.0
-7.06789929214e-17
0.0
7.06789929214e-17
-7.06789929214e-17
9.2642429561e-05
0.0
-9.26424295608e-05
0.0
1.7167307332e-05
-1.7167307332e-05
7.06789929214e-17
7.06789929214e-17
-7.06789929214e-17
0.0
-7.06789929214e-17
0.0
0.0
0.0
-0.00928141026343
1.7167307332e-05
-2.12036978764e-16
1.41357985843e-16
-7.06789929214e-17
-1.7167307332e-05
0.00928141026343
0.0
-7.06789929214e-17
7.06789929214e-17
-7.06789929214e-17
0.0
7.06789929214e-17
0.0
-7.54751222288e-05
-1.7167307332e-05
0.000109809736893
-1.71673073318e-05
1.41357985843e-16
7.06789929214e-17
-7.06789929214e-17
0.0
0.0
0.0
0.0
0.0
-0.00928141026343
1.7167307332e-05
-0.099885706374
-0.00778196408312
-0.0103931194182
-9.26424295609e-05
0.0
-0.0644791309744
-0.0124140855612
-0.0971990759168
-0.0123214431316
-0.000463212147805
-0.0703156040368
-0.0792092772746
-0.0129699401385
0.0142086263375
7.5475122229e-05
1.71673073322e-05
-1.7167307332e-05
0.0
-9.2642429561e-05
0.0
1.7167307332e-05
-1.7167307332e-05
1.41357985843e-16
-0.0092642429561
-1.71673073319e-05
1.71673073318e-05
-1.71673073318e-05
1.71673073318e-05
0.0
0.0
-1.71673073319e-05
1.71673073319e-05
0.0
-1.71673073318e-05
0.00928141026343
0.0
1.7167307332e-05
7.54751222288e-05
1.7167307332e-05
-0.000109809736893
0.0
1.71673073318e-05
-1.71673073318e-05
0.0
1.71673073319e-05
-1.71673073318e-05
0.0
0.0
-1.41357985843e-16
-0.0092642429561
-1.71673073319e-05
1.7167307332e-05
1.41357985843e-16
-1.7167307332e-05
1.7167307332e-05
1.41357985843e-16
-1.71673073322e-05
1.7167307332e-05
0.0
-1.7167307332e-05
0.00937405269299
0.0
-9.26424295608e-05
1.41357985843e-16
1.71673073319e-05
-1.71673073319e-05
1.41357985843e-16
-1.41357985843e-16
1.71673073319e-05
-0.0277000864387
-0.0125067279907
-0.0010362340325
-0.0092642429561
0.0
-1.71673073319e-05
1.7167307332e-05
0.0
-0.000109809736893
1.7167307332e-05
-1.7167307332e-05
1.71673073319e-05
0.0092642429561
0.0
9.26424295611e-05
-1.41357985843e-16
1.71673073322e-05
-1.71673073319e-05
1.41357985843e-16
1.71673073319e-05
-1.71673073319e-05
-1.41357985843e-16
1.7167307332e-05
-1.71673073323e-05
0.0
-1.41357985843e-16
-9.2642429561e-05
0.00648497006927
0.0133405098568
-0.00453947904849
1.71673073322e-05
-1.71673073319e-05
0.000109809736893
0.0
-1.71673073319e-05
0.00464928878538
-1.41357985843e-16
-1.41357985843e-16
-7.54751222288e-05
-1.71673073319e-05
1.71673073319e-05
-1.71673073319e-05
0.0
1.71673073319e-05
-1.71673073318e-05
0.0
1.7167307332e-05
-1.71673073319e-05
1.41357985843e-16
0.0
9.26424295608e-05
-0.0092642429561
-1.71673073319e-05
1.71673073319e-05
0.0
-1.71673073319e-05
0.0
1.71673073319e-05
0.0
-1.71673073318e-05
0.00928141026343
0.0
1.41357985843e-16
-9.26424295608e-05
1.7167307332e-05
-1.7167307332e-05
-1.41357985843e-16
1.71673073318e-05
-1.71673073319e-05
0.0
1.71673073319e-05
-1.7167307332e-05
0.0
0.0
9.26424295608e-05
0.0
-0.0092642429561
1.41357985843e-16
0.0
-1.7167307332e-05
1.71673073319e-05
1.41357985843e-16
-1.7167307332e-05
-7.5475122229e-05
-1.71673073318e-05
1.71673073318e-05
8.24149670573e-17
-8.24149670573e-17
0.0
0.0
0.0
0.0
0.0
0.0
8.06311680111e-17
8.07605851124e-17
-1.63184179976e-16
8.39916987414e-17
8.25465411103e-17
2.6314810597e-19
-8.2153975903e-17
8.2417124009e-17
2.15695168828e-21
-1.6621685405e-16
1.63574588232e-16
1.65006804153e-18
-1.51849398855e-18
-8.24149670573e-17
0.0
8.24149670573e-17
0.0
0.0
-8.24149670573e-17
8.24149670573e-17
8.24149670573e-17
-1.64829934115e-16
0.0
0.0
0.0
0.0
1.91968700257e-19
1.29417101297e-19
1.61596663534e-16
-8.39981695965e-17
-8.24149670573e-17
2.15695168828e-21
8.06376388662e-17
-8.24149670573e-17
1.31574052985e-19
8.24149670573e-17
-8.26759582116e-17
0.0
-1.29417101297e-19
-8.24149670573e-17
0.0
8.24149670573e-17
-8.24149670573e-17
0.0
8.24149670573e-17
0.0
-9.2642429561e-05
9.26424295611e-05
0.0
0.0
0.0
-1.64767382516e-16
-1.64791108984e-18
4.09454138985e-17
-4.12085620045e-17
1.64791108984e-18
8.08986300205e-17
-2.47244901172e-16
1.64961508168e-16
8.40628781472e-17
-2.47244901172e-16
3.92565207266e-19
2.47244901172e-16
-2.47244901172e-16
4.10163776091e-16
0.0
0.0
-9.2642429561e-05
0.0
0.0
9.26424295609e-05
0.0
0.0
0.0
0.0
0.0
0.0
8.39291471425e-17
-8.08317645181e-17
-1.38691993556e-18
-1.33731004673e-19
0.0
1.31574052985e-19
2.15695168828e-21
1.62921031871e-16
-8.24149670573e-17
-8.24128101056e-17
-9.26424295609e-05
0.0
0.0
0.0
9.26424295609e-05
0.0
0.0
0.0
0.0
0.0
1.64829934115e-16
-1.64829934115e-16
0.0
1.64829934115e-16
0.0
-1.64829934115e-16
1.62916717967e-16
-1.25336148702e-16
-3.82384395297e-17
1.44947153452e-18
8.2153975903e-17
8.26781151633e-17
-1.64791108984e-18
-9.26424295611e-05
0.0
0.0
0.0
0.0
0.0
0.0
0.0
9.26424295609e-05
8.24149670573e-17
0.0
-8.24149670573e-17
0.0
0.0
0.0
0.0
1.64829934115e-16
-1.64829934115e-16
4.12732705552e-17
-1.65006804153e-18
1.21971304069e-16
-1.63050448972e-16
1.64698360062e-16
-1.31574052985e-19
-8.07692129192e-17
1.77732819114e-18
-9.2642429561e-05
0.0
0.0
0.0
0.0
0.0
-0.0701303191776
-0.012228800702
-0.000277927288683
0.0
-1.76697482304e-17
0.0
9.26424295609e-05
-1.71673073319e-05
1.71673073318e-05
1.59027734073e-16
-9.2642429561e-05
-8.83487411518e-17
0.0
-0.0924571447018
-0.0120435158429
0.00453947904849
-1.71673073318e-05
1.71673073319e-05
-0.0232532498198
-0.0378907536904
-0.0601249367851
-0.0216783285173
-0.0563437644804
-0.0125067279907
-0.0054659033441
1.71673073319e-05
-1.7167307332e-05
1.7167307332e-05
-7.06789929214e-17
0.0092642429561
-7.06789929214e-17
0.0
7.06789929214e-17
-7.06789929214e-17
7.06789929214e-17
9.26424295609e-05
1.7167307332e-05
-1.71673073318e-05
7.06789929214e-17
1.7167307332e-05
-0.0465064996396
-0.012877297709
-0.000387737025576
7.06789929214e-17
9.26424295609e-05
-0.00461495417072
0.0
-0.000109809736893
1.71673073318e-05
0.0
0.0092642429561
7.06789929214e-17
0.0
-7.06789929214e-17
7.06789929214e-17
0.0
-7.06789929214e-17
7.06789929214e-17
7.06789929214e-17
1.7167307332e-05
-1.71673073318e-05
1.41357985843e-16
1.7167307332e-05
-1.71673073319e-05
0.0
0.0
-1.41357985843e-16
1.41357985843e-16
0.0
0.0
-0.0092642429561
7.54751222289e-05
-7.54751222291e-05
0.0
-1.71673073318e-05
1.71673073318e-05
0.0092642429561
-7.06789929214e-17
0.0
7.06789929214e-17
0.0
-7.06789929214e-17
0.0
1.7167307332e-05
-1.71673073318e-05
7.06789929214e-17
1.71673073318e-05
-1.71673073318e-05
1.41357985843e-16
-7.06789929214e-17
-7.06789929214e-17
2.12036978764e-16
0.0
-1.41357985843e-16
0.0
1.41357985843e-16
-0.00463212147805
0.0
-0.0882127602494
-0.0123214431316
-0.0816934555654
-0.0124140855612
-9.2642429561e-05
1.41357985843e-16
-1.41357985843e-16
-9.26424295607e-05
0.0
-1.71673073318e-05
-0.0788387075564
-0.0123214431316
-0.000816614558717
0.0
0.0139135317415
-0.106075581847
-0.0120435158429
0.000277927288683
-1.71673073319e-05
0.0
-0.00928141026343
1.71673073322e-05
-1.7167307332e-05
-0.0880103080829
-0.0126920128499
-0.000555854577366
-0.0210298315103
0.0328880624941
0.00898631566741
0.0160614749287
-1.71673073319e-05
1.7167307332e-05
-1.7167307332e-05
0.0
1.71673073318e-05
-1.7167307332e-05
1.41357985843e-16
9.26424295607e-05
-1.41357985843e-16
1.41357985843e-16
0.0
-0.0092642429561
0.0
-1.71673073319e-05
1.7167307332e-05
0.0
1.41357985843e-16
-9.2642429561e-05
0.0
-1.7167307332e-05
0.00928141026343
0.0
-0.028070656157
-0.0130625825681
-0.000631329699594
-1.71673073319e-05
1.7167307332e-05
-1.7167307332e-05
-9.26424295611e-05
2.82715971686e-16
-1.41357985843e-16
0.0
2.82715971686e-16
0.0
-0.0092642429561
-1.71673073319e-05
1.71673073318e-05
1.41357985843e-16
-1.71673073318e-05
1.71673073319e-05
-1.71673073319e-05
0.00928141026343
0.0
-1.41357985843e-16
1.41357985843e-16
0.0
0.0
1.7167307332e-05
7.54751222288e-05
0.0
1.7167307332e-05
-0.000109809736893
-1.41357985843e-16
1.71673073319e-05
-1.71673073318e-05
-2.82715971686e-16
1.41357985843e-16
0.0
-2.82715971686e-16
0.0
-0.0092642429561
-1.7167307332e-05
-0.0150080735889
-0.0124140855612
0.00407626690068
1.41357985843e-16
-1.41357985843e-16
1.41357985843e-16
0.0
1.71673073319e-05
-1.71673073319e-05
-9.26424295608e-05
1.71673073319e-05
-1.71673073322e-05
0.0
-1.41357985843e-16
0.0
0.0
1.41357985843e-16
-1.41357985843e-16
2.82715971686e-16
-1.41357985843e-16
-0.0092642429561
0.0
0.0
0.0
-1.71673073319e-05
0.000109809736893
0.0092642429561
-1.41357985843e-16
0.0
1.41357985843e-16
-2.82715971686e-16
0.0
1.41357985843e-16
-9.2642429561e-05
1.71673073319e-05
-1.71673073319e-05
0.0
1.71673073319e-05
-1.7167307332e-05
1.41357985843e-16
-1.41357985843e-16
0.0
1.41357985843e-16
0.0
-1.41357985843e-16
1.41357985843e-16
-0.00463212147805
0.0
-1.7167307332e-05
1.7167307332e-05
-1.41357985843e-16
7.5475122229e-05
0.00464928878538
1.41357985843e-16
0.0
0.0
-1.41357985843e-16
1.41357985843e-16
-7.54751222291e-05
-1.71673073319e-05
1.71673073319e-05
-1.71673073319e-05
9.26424295611e-05
1.71673073319e-05
0.000446044840473
